  0%|          | 0/5 [00:00<?, ?it/s] 20%|██        | 1/5 [52:32<3:30:09, 3152.28s/it] 40%|████      | 2/5 [1:29:10<2:09:32, 2590.95s/it] 60%|██████    | 3/5 [2:21:16<1:34:30, 2835.17s/it] 80%|████████  | 4/5 [3:13:36<49:15, 2955.72s/it]  100%|██████████| 5/5 [4:01:03<00:00, 2916.61s/it]100%|██████████| 5/5 [4:01:03<00:00, 2892.77s/it]
  0%|          | 0/5 [00:00<?, ?it/s]  0%|          | 0/5 [00:05<?, ?it/s]
Traceback (most recent call last):
  File "/home/manceaur/RUN_GRICAD/Cross_val.py", line 317, in <module>
    if probability :
NameError: name 'probability' is not defined
  0%|          | 0/5 [00:00<?, ?it/s]  0%|          | 0/5 [00:03<?, ?it/s]
Traceback (most recent call last):
  File "/home/manceaur/RUN_GRICAD/Cross_val.py", line 317, in <module>
    if probability :
NameError: name 'probability' is not defined
