Gradient Boost cross validation : 
Start: 2022-06-22 15:04:55.047976
importing data
spliting variables
Learning :
 	Train :  ['CI04', 'CI06', 'CI09', 'CI21'] 
 	Test :  CI02
Learning :
 	Train :  ['CI02', 'CI06', 'CI09', 'CI21'] 
 	Test :  CI04
Learning :
 	Train :  ['CI02', 'CI04', 'CI09', 'CI21'] 
 	Test :  CI06
Learning :
 	Train :  ['CI02', 'CI04', 'CI06', 'CI21'] 
 	Test :  CI09
Learning :
 	Train :  ['CI02', 'CI04', 'CI06', 'CI09'] 
 	Test :  CI21
Learning done
Saving results
