  0%|          | 0/5 [00:00<?, ?it/s] 20%|██        | 1/5 [03:39<14:36, 219.19s/it] 40%|████      | 2/5 [07:13<10:48, 216.04s/it] 60%|██████    | 3/5 [10:39<07:03, 211.72s/it]/home/manceaur/.conda/envs/Working_env/lib/python3.9/site-packages/sklearn/metrics/_classification.py:1327: UndefinedMetricWarning: Precision is ill-defined and being set to 0.0 due to no predicted samples. Use `zero_division` parameter to control this behavior.
  _warn_prf(average, modifier, msg_start, len(result))
 80%|████████  | 4/5 [14:31<03:39, 219.52s/it]100%|██████████| 5/5 [17:56<00:00, 214.34s/it]100%|██████████| 5/5 [17:56<00:00, 215.25s/it]
