  0%|          | 0/5 [00:00<?, ?it/s] 20%|██        | 1/5 [58:41<3:54:47, 3521.78s/it] 40%|████      | 2/5 [1:43:04<2:30:49, 3016.54s/it] 60%|██████    | 3/5 [2:42:45<1:49:08, 3274.33s/it] 80%|████████  | 4/5 [3:40:25<55:47, 3347.65s/it]  100%|██████████| 5/5 [4:37:23<00:00, 3372.78s/it]100%|██████████| 5/5 [4:37:23<00:00, 3328.63s/it]
  0%|          | 0/5 [00:00<?, ?it/s] 20%|██        | 1/5 [1:04:33<4:18:13, 3873.30s/it] 40%|████      | 2/5 [1:51:19<2:42:17, 3245.70s/it] 60%|██████    | 3/5 [2:54:27<1:56:26, 3493.41s/it] 80%|████████  | 4/5 [3:55:08<59:11, 3551.68s/it]  100%|██████████| 5/5 [4:53:56<00:00, 3543.08s/it]100%|██████████| 5/5 [4:53:56<00:00, 3527.34s/it]
  0%|          | 0/5 [00:00<?, ?it/s] 20%|██        | 1/5 [1:04:20<4:17:23, 3860.76s/it] 40%|████      | 2/5 [1:49:58<2:39:59, 3199.94s/it] 60%|██████    | 3/5 [2:53:55<1:56:21, 3490.98s/it] 80%|████████  | 4/5 [3:55:09<59:23, 3563.36s/it]  100%|██████████| 5/5 [4:55:43<00:00, 3588.58s/it]100%|██████████| 5/5 [4:55:43<00:00, 3548.61s/it]
  0%|          | 0/5 [00:00<?, ?it/s] 20%|██        | 1/5 [1:03:45<4:15:03, 3825.79s/it] 40%|████      | 2/5 [1:49:48<2:40:01, 3200.51s/it] 60%|██████    | 3/5 [2:54:10<1:56:45, 3502.58s/it] 80%|████████  | 4/5 [3:57:11<1:00:12, 3612.40s/it]100%|██████████| 5/5 [4:56:20<00:00, 3589.54s/it]  100%|██████████| 5/5 [4:56:20<00:00, 3556.08s/it]
  0%|          | 0/5 [00:00<?, ?it/s] 20%|██        | 1/5 [1:08:25<4:33:43, 4105.83s/it] 40%|████      | 2/5 [1:54:36<2:46:01, 3320.46s/it] 60%|██████    | 3/5 [3:00:07<1:59:58, 3599.26s/it] 80%|████████  | 4/5 [4:03:21<1:01:16, 3676.01s/it]100%|██████████| 5/5 [5:02:14<00:00, 3624.61s/it]  100%|██████████| 5/5 [5:02:14<00:00, 3626.95s/it]
  0%|          | 0/5 [00:00<?, ?it/s]## OAR [2022-06-23 12:02:47] Job 21586557 KILLED ##
