9.547998749218261638e-01 8.977000770697278753e-01 9.470863526570048041e-01 9.429340795511799156e-01 9.328591393715252034e-01
0.000000000000000000e+00 2.105263157894736725e-01 6.213364595545135122e-02 1.000000000000000000e+00 3.584070796460177011e-01
0.000000000000000000e+00 1.322182924007536480e-04 3.446930280957335915e-03 5.366086334366802204e-04 3.692055244085874419e-03
9.995294425735808952e-01 9.999435204813561517e-01 9.972349720732179845e-01 1.000000000000000000e+00 9.995257951107840988e-01
