2.397790000000000000e+05 4.612000000000000000e+03 1.112700000000000000e+04 3.220000000000000000e+02
2.634610000000000000e+05 2.122000000000000000e+03 2.973700000000000000e+04 5.160000000000000000e+02
2.804130000000000000e+05 8.915000000000000000e+03 1.457900000000000000e+04 7.970000000000000000e+02
2.742390000000000000e+05 2.737000000000000000e+03 1.620300000000000000e+04 5.690000000000000000e+02
2.956390000000000000e+05 1.013600000000000000e+04 2.066200000000000000e+04 1.277000000000000000e+03
