2.317890000000000000e+05 1.260200000000000000e+04 1.036700000000000000e+04 1.082000000000000000e+03
2.558470000000000000e+05 9.736000000000000000e+03 2.821800000000000000e+04 2.035000000000000000e+03
2.677000000000000000e+05 2.162800000000000000e+04 1.336400000000000000e+04 2.012000000000000000e+03
2.686670000000000000e+05 8.309000000000000000e+03 1.493900000000000000e+04 1.833000000000000000e+03
2.855230000000000000e+05 2.025200000000000000e+04 1.939400000000000000e+04 2.545000000000000000e+03
