2.387580000000000000e+05 5.633000000000000000e+03 1.104000000000000000e+04 4.090000000000000000e+02
2.625680000000000000e+05 3.015000000000000000e+03 2.958200000000000000e+04 6.710000000000000000e+02
2.785220000000000000e+05 1.080600000000000000e+04 1.444700000000000000e+04 9.290000000000000000e+02
2.736780000000000000e+05 3.298000000000000000e+03 1.606500000000000000e+04 7.070000000000000000e+02
2.940640000000000000e+05 1.171100000000000000e+04 2.048200000000000000e+04 1.457000000000000000e+03
