2.350420000000000000e+05 9.349000000000000000e+03 1.072700000000000000e+04 7.220000000000000000e+02
2.589610000000000000e+05 6.622000000000000000e+03 2.876500000000000000e+04 1.488000000000000000e+03
2.724190000000000000e+05 1.690900000000000000e+04 1.382800000000000000e+04 1.548000000000000000e+03
2.710060000000000000e+05 5.970000000000000000e+03 1.537000000000000000e+04 1.402000000000000000e+03
2.886180000000000000e+05 1.715700000000000000e+04 1.983300000000000000e+04 2.106000000000000000e+03
