2.347180000000000000e+05 9.673000000000000000e+03 1.069500000000000000e+04 7.540000000000000000e+02
2.587010000000000000e+05 6.882000000000000000e+03 2.871900000000000000e+04 1.534000000000000000e+03
2.720120000000000000e+05 1.731600000000000000e+04 1.381700000000000000e+04 1.559000000000000000e+03
2.707340000000000000e+05 6.242000000000000000e+03 1.534300000000000000e+04 1.429000000000000000e+03
2.885950000000000000e+05 1.718000000000000000e+04 1.983500000000000000e+04 2.104000000000000000e+03
