6.782129455909943205e-01 6.805425979258779012e-01 5.738191818945599376e-01 8.065757043452210784e-01 5.556979561446870886e-01
9.829859103841488699e-02 1.869933749025720904e-01 8.921612951839652528e-02 1.365797880063888414e-01 1.142340206507159173e-01
7.574460651585290805e-01 6.344164215119161288e-01 8.085327783558793335e-01 4.486644407345575791e-01 8.345868088791649209e-01
6.745011068329029857e-01 6.857969071815590567e-01 5.613456008405685038e-01 8.282486569233434848e-01 5.356880058866814176e-01
