9.317268605378361546e-01 8.873565083356994565e-01 9.128662570888468331e-01 9.329731606683279166e-01 8.977828228272213273e-01
6.429192006950477933e-02 1.829444559157547001e-01 8.036653147063241298e-02 1.850572230619736691e-01 1.091499289916818827e-01
3.878067953533059775e-02 2.928635176676693333e-02 6.958896982310093515e-02 5.109706653947054811e-02 7.356761930808150551e-02
9.735587644389522843e-01 9.851007029817420158e-01 9.576812475806005809e-01 9.863742706949338857e-01 9.569193034093695927e-01
