9.062148217636022407e-01 8.692485025487094452e-01 8.812618147448014749e-01 9.183177417378161067e-01 8.770971029617288250e-01
8.130298377945396893e-02 1.709868831980012605e-01 8.491620111731842946e-02 1.803293201133144563e-01 1.117133903616498725e-01
1.063848371036771739e-01 7.238951508941261770e-02 1.383975026014568066e-01 1.214524207011686147e-01 1.202424905419572504e-01
9.436845055668989790e-01 9.600200314026123838e-01 9.207404744787922590e-01 9.665711108543700858e-01 9.314005396124601655e-01
