2.438190000000000000e+05 5.720000000000000000e+02 1.144800000000000000e+04 1.000000000000000000e+00
2.654630000000000000e+05 1.200000000000000000e+02 3.013900000000000000e+04 1.140000000000000000e+02
2.885290000000000000e+05 7.990000000000000000e+02 1.503900000000000000e+04 3.370000000000000000e+02
2.769760000000000000e+05 0.000000000000000000e+00 1.677200000000000000e+04 0.000000000000000000e+00
3.051680000000000000e+05 6.070000000000000000e+02 2.170000000000000000e+04 2.390000000000000000e+02
