1.537920000000000000e+05 9.059900000000000000e+04 1.583000000000000000e+03 9.866000000000000000e+03
1.769610000000000000e+05 8.862200000000000000e+04 9.550000000000000000e+03 2.070300000000000000e+04
1.593720000000000000e+05 1.299560000000000000e+05 2.063000000000000000e+03 1.331300000000000000e+04
2.152650000000000000e+05 6.171100000000000000e+04 6.799000000000000000e+03 9.973000000000000000e+03
1.521440000000000000e+05 1.536310000000000000e+05 2.383000000000000000e+03 1.955600000000000000e+04
