9.626700000000000000e+04 1.481240000000000000e+05 1.840000000000000000e+02 1.126500000000000000e+04
1.192280000000000000e+05 1.463550000000000000e+05 3.834000000000000000e+03 2.641900000000000000e+04
1.023190000000000000e+05 1.870090000000000000e+05 7.170000000000000000e+02 1.465900000000000000e+04
1.571760000000000000e+05 1.198000000000000000e+05 3.144000000000000000e+03 1.362800000000000000e+04
8.155500000000000000e+04 2.242200000000000000e+05 6.850000000000000000e+02 2.125400000000000000e+04
