2.443910000000000000e+05 0.000000000000000000e+00 1.144900000000000000e+04 0.000000000000000000e+00
2.655830000000000000e+05 0.000000000000000000e+00 3.025300000000000000e+04 0.000000000000000000e+00
2.893280000000000000e+05 0.000000000000000000e+00 1.537600000000000000e+04 0.000000000000000000e+00
2.769760000000000000e+05 0.000000000000000000e+00 1.677200000000000000e+04 0.000000000000000000e+00
3.057750000000000000e+05 0.000000000000000000e+00 2.193900000000000000e+04 0.000000000000000000e+00
