1.760980000000000000e+05 6.829300000000000000e+04 2.820000000000000000e+03 8.629000000000000000e+03
1.964330000000000000e+05 6.915000000000000000e+04 1.286700000000000000e+04 1.738600000000000000e+04
1.841950000000000000e+05 1.051330000000000000e+05 3.410000000000000000e+03 1.196600000000000000e+04
2.345410000000000000e+05 4.243500000000000000e+04 9.022000000000000000e+03 7.750000000000000000e+03
1.816280000000000000e+05 1.241470000000000000e+05 3.865000000000000000e+03 1.807400000000000000e+04
