6.300000000000000000e+01 0.000000000000000000e+00 4.000000000000000000e+01 0.000000000000000000e+00
7.800000000000000000e+01 0.000000000000000000e+00 6.700000000000000000e+01 0.000000000000000000e+00
1.590000000000000000e+02 0.000000000000000000e+00 5.700000000000000000e+01 0.000000000000000000e+00
3.900000000000000000e+01 0.000000000000000000e+00 2.100000000000000000e+01 0.000000000000000000e+00
1.260000000000000000e+02 0.000000000000000000e+00 7.200000000000000000e+01 0.000000000000000000e+00
