1.100000000000000000e+01 5.200000000000000000e+01 6.000000000000000000e+00 3.400000000000000000e+01
2.900000000000000000e+01 4.900000000000000000e+01 1.700000000000000000e+01 5.000000000000000000e+01
1.320000000000000000e+02 2.700000000000000000e+01 4.600000000000000000e+01 1.100000000000000000e+01
2.200000000000000000e+01 1.700000000000000000e+01 1.100000000000000000e+01 1.000000000000000000e+01
6.400000000000000000e+01 6.200000000000000000e+01 3.100000000000000000e+01 4.100000000000000000e+01
