4.466019417475728392e-01 5.655172413793103647e-01 6.388888888888888395e-01 5.166666666666667185e-01 5.303030303030302761e-01
4.000000000000000222e-01 5.212765957446808818e-01 2.765957446808510745e-01 3.571428571428571508e-01 4.018691588785046620e-01
8.499999999999999778e-01 7.313432835820895539e-01 2.280701754385964786e-01 4.761904761904761640e-01 5.972222222222222099e-01
1.904761904761904656e-01 4.230769230769230727e-01 7.861635220125786638e-01 5.384615384615384359e-01 4.920634920634920362e-01
