4.368932038834951181e-01 5.379310344827585855e-01 6.944444444444444198e-01 4.666666666666666741e-01 5.656565656565656353e-01
3.977272727272727071e-01 5.000000000000000000e-01 3.448275862068965747e-01 3.513513513513513709e-01 4.166666666666666852e-01
8.750000000000000000e-01 8.059701492537313383e-01 1.754385964912280604e-01 6.190476190476190688e-01 4.861111111111111049e-01
1.587301587301587213e-01 3.076923076923077094e-01 8.805031446540880768e-01 3.846153846153846367e-01 6.111111111111111605e-01
