6.100000000000000000e+01 2.000000000000000000e+00 3.000000000000000000e+01 1.000000000000000000e+01
7.700000000000000000e+01 1.000000000000000000e+00 6.400000000000000000e+01 3.000000000000000000e+00
1.360000000000000000e+02 2.300000000000000000e+01 4.500000000000000000e+01 1.200000000000000000e+01
2.800000000000000000e+01 1.100000000000000000e+01 1.200000000000000000e+01 9.000000000000000000e+00
1.170000000000000000e+02 9.000000000000000000e+00 6.400000000000000000e+01 8.000000000000000000e+00
