6.699029126213592589e-01 5.448275862068965303e-01 6.296296296296296502e-01 5.999999999999999778e-01 4.090909090909091161e-01
5.937500000000000000e-01 5.714285714285713969e-01 3.466666666666666785e-01 4.285714285714285476e-01 3.668639053254437732e-01
4.749999999999999778e-01 5.970149253731343170e-02 4.561403508771929571e-01 4.285714285714285476e-01 8.611111111111111605e-01
7.936507936507936067e-01 9.615384615384615641e-01 6.918238993710691398e-01 6.923076923076922906e-01 1.507936507936507853e-01
