1.100000000000000000e+01 5.200000000000000000e+01 6.000000000000000000e+00 3.400000000000000000e+01
2.700000000000000000e+01 5.100000000000000000e+01 1.400000000000000000e+01 5.300000000000000000e+01
1.360000000000000000e+02 2.300000000000000000e+01 4.600000000000000000e+01 1.100000000000000000e+01
2.200000000000000000e+01 1.700000000000000000e+01 1.100000000000000000e+01 1.000000000000000000e+01
6.600000000000000000e+01 6.000000000000000000e+01 3.400000000000000000e+01 3.800000000000000000e+01
