1.000000000000000000e+01 5.300000000000000000e+01 6.000000000000000000e+00 3.400000000000000000e+01
2.500000000000000000e+01 5.300000000000000000e+01 1.300000000000000000e+01 5.400000000000000000e+01
1.380000000000000000e+02 2.100000000000000000e+01 4.700000000000000000e+01 1.000000000000000000e+01
1.600000000000000000e+01 2.300000000000000000e+01 8.000000000000000000e+00 1.300000000000000000e+01
7.300000000000000000e+01 5.300000000000000000e+01 3.500000000000000000e+01 3.700000000000000000e+01
