6.699029126213592589e-01 5.999999999999999778e-01 5.833333333333333703e-01 5.999999999999999778e-01 4.494949494949495028e-01
5.555555555555555802e-01 6.800000000000000488e-01 3.263157894736842257e-01 4.400000000000000022e-01 3.790849673202614234e-01
7.500000000000000000e-01 2.537313432835821003e-01 5.438596491228070429e-01 5.238095238095238360e-01 8.055555555555555802e-01
6.190476190476190688e-01 8.974358974358974672e-01 5.974842767295597268e-01 6.410256410256410797e-01 2.460317460317460181e-01
