2.279110000000000000e+05 1.648000000000000000e+04 8.776000000000000000e+03 2.673000000000000000e+03
2.560960000000000000e+05 9.487000000000000000e+03 2.662700000000000000e+04 3.626000000000000000e+03
2.562910000000000000e+05 3.303700000000000000e+04 1.059500000000000000e+04 4.781000000000000000e+03
2.665240000000000000e+05 1.045200000000000000e+04 1.490800000000000000e+04 1.864000000000000000e+03
2.836240000000000000e+05 2.215100000000000000e+04 1.850000000000000000e+04 3.439000000000000000e+03
