6.781191369606003327e-01 6.805966819454022376e-01 5.738191818945599376e-01 8.065893214592099181e-01 5.577515760693775304e-01
9.827185676242279622e-02 1.870225288431555943e-01 8.921612951839652528e-02 1.365897044943004401e-01 1.145611352069596661e-01
7.574460651585290805e-01 6.344164215119161288e-01 8.085327783558793335e-01 4.486644407345575791e-01 8.331282191531063086e-01
3.255970964560888081e-01 6.858571520014459244e-01 5.613456008405685038e-01 1.717369013921783705e-01 4.620063772381653444e-01
