1.887230000000000000e+05 5.566800000000000000e+04 4.861000000000000000e+03 6.588000000000000000e+03
2.126890000000000000e+05 5.289400000000000000e+04 1.655900000000000000e+04 1.369400000000000000e+04
2.091130000000000000e+05 8.021500000000000000e+04 6.225000000000000000e+03 9.151000000000000000e+03
2.410810000000000000e+05 3.589500000000000000e+04 9.423000000000000000e+03 7.349000000000000000e+03
2.392630000000000000e+05 6.651200000000000000e+04 1.285100000000000000e+04 9.088000000000000000e+03
