1.694340000000000000e+05 7.495700000000000000e+04 2.393000000000000000e+03 9.056000000000000000e+03
1.904450000000000000e+05 7.513800000000000000e+04 1.177600000000000000e+04 1.847700000000000000e+04
1.766210000000000000e+05 1.127070000000000000e+05 2.944000000000000000e+03 1.243200000000000000e+04
2.287550000000000000e+05 4.822100000000000000e+04 8.282000000000000000e+03 8.490000000000000000e+03
1.729100000000000000e+05 1.328650000000000000e+05 3.376000000000000000e+03 1.856300000000000000e+04
