6.945551907442151229e-01 7.061784231804107970e-01 6.161126864104179424e-01 8.091629560031047275e-01 5.815162001013078896e-01
1.074581538244226281e-01 1.983713008303172320e-01 9.869491712881768575e-02 1.490190472787049358e-01 1.224651644447940085e-01
7.973622150406148856e-01 6.159719697220110701e-01 8.125000000000000000e-01 4.972573336513236297e-01 8.516796572314143665e-01
6.897389838414671459e-01 7.164539899014620294e-01 6.056759110767018228e-01 8.280500837617700283e-01 5.621322868121985117e-01
