1.745960000000000000e+05 6.979500000000000000e+04 3.685000000000000000e+03 7.764000000000000000e+03
2.017820000000000000e+05 6.380100000000000000e+04 1.421100000000000000e+04 1.604200000000000000e+04
1.906710000000000000e+05 9.865700000000000000e+04 4.390000000000000000e+03 1.098600000000000000e+04
2.293930000000000000e+05 4.758300000000000000e+04 8.238000000000000000e+03 8.534000000000000000e+03
2.268250000000000000e+05 7.895000000000000000e+04 1.198600000000000000e+04 9.953000000000000000e+03
