1.964760000000000000e+05 4.791500000000000000e+04 5.719000000000000000e+03 5.730000000000000000e+03
2.195130000000000000e+05 4.607000000000000000e+04 1.816700000000000000e+04 1.208600000000000000e+04
2.201900000000000000e+05 6.913800000000000000e+04 7.427000000000000000e+03 7.949000000000000000e+03
2.460610000000000000e+05 3.091500000000000000e+04 1.010900000000000000e+04 6.663000000000000000e+03
2.480530000000000000e+05 5.772200000000000000e+04 1.391800000000000000e+04 8.021000000000000000e+03
