6.947349906191369051e-01 7.061243391608864606e-01 6.184264072673808510e-01 8.055101651755927072e-01 5.814429655126116536e-01
1.073221313600263987e-01 1.973259862027722522e-01 9.910754730476106777e-02 1.498499071680172157e-01 1.219206488785058995e-01
7.955279937112411659e-01 6.107824017452814225e-01 8.110691987513006795e-01 5.149057953732411042e-01 8.468480787638451579e-01
6.900131346899026630e-01 7.169848973767146694e-01 6.081886302051651150e-01 8.231074172491479324e-01 5.624004578529965270e-01
