1.698180000000000000e+05 7.457300000000000000e+04 2.399000000000000000e+03 9.050000000000000000e+03
1.910210000000000000e+05 7.456200000000000000e+04 1.189500000000000000e+04 1.835800000000000000e+04
1.769660000000000000e+05 1.123620000000000000e+05 2.983000000000000000e+03 1.239300000000000000e+04
2.286370000000000000e+05 4.833900000000000000e+04 8.268000000000000000e+03 8.504000000000000000e+03
1.728630000000000000e+05 1.329120000000000000e+05 3.365000000000000000e+03 1.857400000000000000e+04
