XGBoost Oversampling cross validation : 
Start: 2022-06-13 14:47:42.718030
importing data
class balance
spliting variables
Learning :
 	Train :  ['CI04_OS', 'CI06_OS', 'CI09_OS', 'CI21_OS'] 
 	Test :  CI02
Learning :
 	Train :  ['CI02_OS', 'CI06_OS', 'CI09_OS', 'CI21_OS'] 
 	Test :  CI04
Learning :
 	Train :  ['CI02_OS', 'CI04_OS', 'CI09_OS', 'CI21_OS'] 
 	Test :  CI06
Learning :
 	Train :  ['CI02_OS', 'CI04_OS', 'CI06_OS', 'CI21_OS'] 
 	Test :  CI09
Learning :
 	Train :  ['CI02_OS', 'CI04_OS', 'CI06_OS', 'CI09_OS'] 
 	Test :  CI21
Learning done
Saving results
