6.926670123906805143e-01 6.646276632919907446e-01 6.469593544958623932e-01 6.155082070793723714e-01 5.914505454015452912e-01 5.727962200099137036e-01 5.479824220673326085e-01 5.304407315975986359e-01 5.130591488424688373e-01 4.931475546618457884e-01 4.743464430435560542e-01 4.641258618631400323e-01 4.470103738607140720e-01 4.316151826977729922e-01 4.220821527615189472e-01 4.133067197379423074e-01 3.943558496776968791e-01 3.874151492165401334e-01 3.711607421658700279e-01 3.604162949593737730e-01 3.443065554085187330e-01 3.343269420634023548e-01 3.294337181830778727e-01 3.178623612220399242e-01 3.081617117981368392e-01 2.983779258392751377e-01 2.863769370403606573e-01 2.783005665331147460e-01 2.641024596909992694e-01 2.598428711015149384e-01 2.487258564495714586e-01 2.420960065297549646e-01 2.311254561363602911e-01 2.258096597868134159e-01 2.209276934132794745e-01 2.125495054792554683e-01 2.046458344295388199e-01 2.027351418623584423e-01 1.938111755653517398e-01 1.875402739036944877e-01 1.797483214682724650e-01 1.759097196228685822e-01 1.703117303640319657e-01 1.643031096368649802e-01 1.568130441928187735e-01 1.516630239763544497e-01 1.455418069339575460e-01 1.406336431761010253e-01 1.387351185325314817e-01 1.314778998326983084e-01
5.007999999999999829e+01 5.571999999999999886e+01 6.003999999999999915e+01 6.584000000000000341e+01 6.871999999999999886e+01 7.259999999999999432e+01 7.676000000000000512e+01 7.900000000000000000e+01 8.031999999999999318e+01 8.400000000000000000e+01 8.312000000000000455e+01 8.776000000000000512e+01 8.859999999999999432e+01 8.776000000000000512e+01 8.868000000000000682e+01 9.168000000000000682e+01 9.064000000000000057e+01 9.087999999999999545e+01 9.292000000000000171e+01 9.420000000000000284e+01 9.376000000000000512e+01 9.420000000000000284e+01 9.468000000000000682e+01 9.431999999999999318e+01 9.412000000000000455e+01 9.548000000000000398e+01 9.551999999999999602e+01 9.571999999999999886e+01 9.587999999999999545e+01 9.543999999999999773e+01 9.664000000000000057e+01 9.576000000000000512e+01 9.564000000000000057e+01 9.615999999999999659e+01 9.595999999999999375e+01 9.612000000000000455e+01 9.664000000000000057e+01 9.687999999999999545e+01 9.664000000000000057e+01 9.671999999999999886e+01 9.687999999999999545e+01 9.687999999999999545e+01 9.684000000000000341e+01 9.695999999999999375e+01 9.712000000000000455e+01 9.687999999999999545e+01 9.687999999999999545e+01 9.712000000000000455e+01 9.695999999999999375e+01 9.759999999999999432e+01
6.879999999999999893e+00 2.028000000000000114e+01 5.388000000000000256e+01 5.739999999999999858e+01 6.943999999999999773e+01 7.792000000000000171e+01 8.095999999999999375e+01 8.964000000000000057e+01 9.115999999999999659e+01 9.079999999999999716e+01 9.184000000000000341e+01 9.304000000000000625e+01 9.228000000000000114e+01 9.379999999999999716e+01 9.276000000000000512e+01 9.307999999999999829e+01 9.143999999999999773e+01 9.215999999999999659e+01 9.204000000000000625e+01 9.348000000000000398e+01 9.323999999999999488e+01 9.251999999999999602e+01 nan 9.176000000000000512e+01 9.235999999999999943e+01 9.064000000000000057e+01 9.220000000000000284e+01 9.287999999999999545e+01 9.223999999999999488e+01 9.271999999999999886e+01 9.359999999999999432e+01 9.195999999999999375e+01 9.256000000000000227e+01 9.243999999999999773e+01 9.264000000000000057e+01 9.179999999999999716e+01 9.335999999999999943e+01 9.400000000000000000e+01 9.300000000000000000e+01 9.295999999999999375e+01 9.351999999999999602e+01 9.420000000000000284e+01 9.312000000000000455e+01 9.395999999999999375e+01 9.395999999999999375e+01 9.340000000000000568e+01 9.320000000000000284e+01 9.335999999999999943e+01 9.407999999999999829e+01 9.476000000000000512e+01
9.276000000000000512e+01 9.087999999999999545e+01 6.807999999999999829e+01 7.464000000000000057e+01 6.687999999999999545e+01 6.779999999999999716e+01 7.095999999999999375e+01 6.887999999999999545e+01 7.107999999999999829e+01 7.756000000000000227e+01 7.292000000000000171e+01 8.276000000000000512e+01 8.515999999999999659e+01 8.176000000000000512e+01 8.564000000000000057e+01 9.068000000000000682e+01 8.840000000000000568e+01 8.992000000000000171e+01 9.304000000000000625e+01 9.659999999999999432e+01 9.400000000000000000e+01 9.587999999999999545e+01 9.656000000000000227e+01 9.620000000000000284e+01 9.643999999999999773e+01 9.864000000000000057e+01 9.931999999999999318e+01 9.864000000000000057e+01 9.951999999999999602e+01 9.787999999999999545e+01 1.000000000000000000e+02 9.920000000000000284e+01 9.871999999999999886e+01 9.943999999999999773e+01 9.868000000000000682e+01 9.959999999999999432e+01 1.000000000000000000e+02 1.000000000000000000e+02 1.000000000000000000e+02 1.000000000000000000e+02 1.000000000000000000e+02 9.959999999999999432e+01 1.000000000000000000e+02 1.000000000000000000e+02 1.000000000000000000e+02 1.000000000000000000e+02 1.000000000000000000e+02 1.000000000000000000e+02 1.000000000000000000e+02 1.000000000000000000e+02
6.893203883495145901e-01 4.951456310679611672e-01 4.854368932038835016e-01 5.048543689320388328e-01 5.145631067961164984e-01 5.048543689320388328e-01 4.854368932038835016e-01 5.048543689320388328e-01 4.271844660194174526e-01 4.368932038834951181e-01 4.951456310679611672e-01 4.854368932038835016e-01 4.174757281553397870e-01 5.145631067961164984e-01 5.339805825242718296e-01 5.145631067961164984e-01 5.436893203883494952e-01 5.048543689320388328e-01 4.951456310679611672e-01 5.242718446601941640e-01 5.145631067961164984e-01 5.145631067961164984e-01 4.951456310679611672e-01 4.951456310679611672e-01 5.242718446601941640e-01 5.048543689320388328e-01 5.048543689320388328e-01 4.854368932038835016e-01 4.951456310679611672e-01 5.339805825242718296e-01 5.048543689320388328e-01 4.951456310679611672e-01 5.145631067961164984e-01 5.145631067961164984e-01 4.951456310679611672e-01 5.048543689320388328e-01 5.048543689320388328e-01 5.048543689320388328e-01 4.951456310679611672e-01 5.048543689320388328e-01 4.854368932038835016e-01 5.242718446601941640e-01 5.048543689320388328e-01 5.145631067961164984e-01 4.951456310679611672e-01 4.951456310679611672e-01 4.854368932038835016e-01 5.048543689320388328e-01 4.854368932038835016e-01 4.951456310679611672e-01
2.162162162162162282e-01 4.864864864864865135e-01 3.243243243243243423e-01 4.324324324324324564e-01 5.675675675675675436e-01 4.594594594594594850e-01 6.486486486486486847e-01 5.675675675675675436e-01 6.756756756756756577e-01 6.756756756756756577e-01 5.945945945945946276e-01 6.756756756756756577e-01 6.756756756756756577e-01 6.756756756756756577e-01 5.675675675675675436e-01 5.675675675675675436e-01 4.864864864864865135e-01 5.405405405405405705e-01 5.675675675675675436e-01 5.945945945945946276e-01 6.486486486486486847e-01 5.135135135135134865e-01 6.486486486486486847e-01 5.675675675675675436e-01 5.945945945945946276e-01 5.675675675675675436e-01 4.324324324324324564e-01 4.864864864864865135e-01 4.594594594594594850e-01 4.864864864864865135e-01 4.864864864864865135e-01 5.135135135135134865e-01 4.054054054054054279e-01 4.864864864864865135e-01 4.054054054054054279e-01 4.054054054054054279e-01 4.864864864864865135e-01 4.594594594594594850e-01 3.783783783783783994e-01 3.783783783783783994e-01 3.783783783783783994e-01 5.135135135135134865e-01 4.054054054054054279e-01 4.324324324324324564e-01 4.324324324324324564e-01 3.783783783783783994e-01 3.243243243243243423e-01 3.783783783783783994e-01 3.783783783783783994e-01 3.783783783783783994e-01
9.545454545454545858e-01 5.000000000000000000e-01 5.757575757575758013e-01 5.454545454545454142e-01 4.848484848484848619e-01 5.303030303030302761e-01 3.939393939393939226e-01 4.696969696969697239e-01 2.878787878787879007e-01 3.030303030303030387e-01 4.393939393939393923e-01 3.787878787878787845e-01 2.727272727272727071e-01 4.242424242424242542e-01 5.151515151515151381e-01 4.848484848484848619e-01 5.757575757575758013e-01 4.848484848484848619e-01 4.545454545454545303e-01 4.848484848484848619e-01 4.393939393939393923e-01 5.151515151515151381e-01 4.090909090909091161e-01 4.545454545454545303e-01 4.848484848484848619e-01 4.696969696969697239e-01 5.454545454545454142e-01 4.848484848484848619e-01 5.151515151515151381e-01 5.606060606060605522e-01 5.151515151515151381e-01 4.848484848484848619e-01 5.757575757575758013e-01 5.303030303030302761e-01 5.454545454545454142e-01 5.606060606060605522e-01 5.151515151515151381e-01 5.303030303030302761e-01 5.606060606060605522e-01 5.757575757575758013e-01 5.454545454545454142e-01 5.303030303030302761e-01 5.606060606060605522e-01 5.606060606060605522e-01 5.303030303030302761e-01 5.606060606060605522e-01 5.757575757575758013e-01 5.757575757575758013e-01 5.454545454545454142e-01 5.606060606060605522e-01
