6.925553993001384301e-01 6.722873610995305782e-01 6.559044441974758444e-01 6.330019321564650525e-01 6.144888277656787023e-01 6.000750303641810834e-01 5.835670260664318487e-01 5.667310345187903664e-01 5.494286411990316754e-01 5.337558025686737206e-01 5.176980154833218384e-01 5.111435705125050299e-01 4.930446969677104163e-01 4.816136725186529466e-01 4.696120844632589719e-01 4.554813870905626283e-01 4.451516377318416318e-01 4.310317080083262420e-01 4.211989766129969337e-01 4.158763230973462344e-01 4.047782986160217145e-01 3.894046679242537112e-01 3.820394131485864708e-01 3.704823898204843702e-01 3.612895280794133357e-01 3.504751764985541973e-01 3.414086897265287690e-01 3.293388156579685755e-01 3.199071957735541427e-01 3.120902086984473356e-01 3.018945415046207503e-01 2.921643325706845817e-01 2.854208649847995161e-01 2.735849139490309501e-01 2.662841707695982607e-01 2.587131940924579654e-01 2.500171811117968268e-01 2.400732744385355444e-01 2.323319850976127698e-01 2.259957675620250517e-01 2.190717945989530124e-01 2.142161088871130659e-01 2.052015733359846550e-01 1.982341716188021907e-01 1.899408883343216559e-01 1.864045548193514201e-01 1.788608482733229643e-01 1.738194116555605850e-01 1.665415380247062260e-01 1.625060031740515887e-01
4.982608695652174191e+01 5.426086956521739069e+01 5.765217391304347672e+01 6.308695652173913260e+01 6.695652173913043725e+01 6.730434782608695343e+01 7.165217391304348382e+01 7.591304347826087451e+01 7.730434782608695343e+01 7.873913043478260931e+01 8.352173913043478137e+01 7.839130434782609314e+01 8.134782608695651618e+01 8.347826086956521863e+01 8.565217391304348382e+01 8.860869565217390686e+01 8.873913043478260931e+01 9.065217391304348382e+01 9.121739130434782794e+01 9.008695652173912549e+01 9.004347826086956275e+01 9.304347826086956275e+01 9.178260869565217206e+01 9.304347826086956275e+01 9.469565217391304657e+01 9.447826086956521863e+01 9.360869565217390686e+01 9.500000000000000000e+01 9.382608695652173481e+01 9.547826086956521863e+01 9.395652173913043725e+01 9.521739130434782794e+01 9.391304347826087451e+01 9.504347826086956275e+01 9.469565217391304657e+01 9.573913043478260931e+01 9.582608695652173481e+01 9.608695652173912549e+01 9.573913043478260931e+01 9.547826086956521863e+01 9.630434782608695343e+01 9.604347826086956275e+01 9.569565217391304657e+01 9.547826086956521863e+01 9.634782608695651618e+01 9.660869565217390686e+01 9.656521739130434412e+01 9.660869565217390686e+01 9.652173913043478137e+01 9.656521739130434412e+01
2.373913043478260931e+01 2.021739130434782439e+01 4.408695652173913260e+01 5.143478260869564878e+01 6.217391304347825809e+01 6.991304347826087451e+01 7.778260869565217206e+01 8.026086956521739069e+01 8.417391304347826519e+01 8.739130434782609314e+01 9.008695652173912549e+01 8.682608695652173481e+01 9.200000000000000000e+01 9.039130434782609314e+01 9.091304347826087451e+01 9.173913043478260931e+01 8.995652173913043725e+01 9.213043478260870245e+01 9.330434782608695343e+01 9.213043478260870245e+01 9.239130434782609314e+01 9.147826086956521863e+01 9.339130434782609314e+01 9.326086956521739069e+01 9.230434782608695343e+01 9.160869565217390686e+01 9.078260869565217206e+01 9.030434782608695343e+01 9.186956521739129755e+01 9.004347826086956275e+01 9.030434782608695343e+01 8.995652173913043725e+01 9.126086956521739069e+01 8.917391304347826519e+01 9.117391304347826519e+01 9.034782608695651618e+01 9.182608695652173481e+01 9.208695652173912549e+01 9.165217391304348382e+01 9.208695652173912549e+01 9.273913043478260931e+01 9.226086956521739069e+01 9.330434782608695343e+01 9.004347826086956275e+01 9.165217391304348382e+01 9.243478260869565588e+01 9.291304347826087451e+01 9.173913043478260931e+01 9.230434782608695343e+01 9.330434782608695343e+01
7.556521739130434412e+01 8.717391304347826519e+01 7.347826086956521863e+01 7.373913043478260931e+01 7.286956521739129755e+01 6.200000000000000000e+01 6.686956521739129755e+01 6.982608695652173481e+01 7.182608695652173481e+01 7.030434782608695343e+01 7.804347826086956275e+01 7.160869565217390686e+01 7.347826086956521863e+01 7.817391304347826519e+01 8.100000000000000000e+01 8.426086956521739069e+01 8.547826086956521863e+01 8.778260869565217206e+01 8.956521739130434412e+01 8.782608695652173481e+01 8.782608695652173481e+01 9.491304347826087451e+01 9.082608695652173481e+01 9.213043478260870245e+01 9.804347826086956275e+01 9.708695652173912549e+01 9.626086956521739069e+01 9.834782608695651618e+01 9.552173913043478137e+01 1.000000000000000000e+02 9.752173913043478137e+01 1.000000000000000000e+02 9.552173913043478137e+01 9.939130434782609314e+01 9.886956521739129755e+01 1.000000000000000000e+02 1.000000000000000000e+02 1.000000000000000000e+02 1.000000000000000000e+02 9.952173913043478137e+01 1.000000000000000000e+02 1.000000000000000000e+02 9.891304347826087451e+01 1.000000000000000000e+02 1.000000000000000000e+02 1.000000000000000000e+02 1.000000000000000000e+02 1.000000000000000000e+02 1.000000000000000000e+02 1.000000000000000000e+02
6.574074074074074403e-01 5.694444444444444198e-01 6.435185185185184897e-01 5.277777777777777901e-01 5.046296296296296502e-01 5.740740740740740700e-01 6.064814814814815103e-01 4.722222222222222099e-01 5.185185185185184897e-01 5.185185185185184897e-01 4.398148148148148251e-01 5.046296296296296502e-01 5.092592592592593004e-01 4.861111111111111049e-01 5.092592592592593004e-01 5.000000000000000000e-01 4.861111111111111049e-01 5.138888888888888395e-01 5.555555555555555802e-01 5.879629629629629095e-01 5.787037037037037202e-01 5.185185185185184897e-01 5.833333333333333703e-01 6.157407407407406996e-01 5.509259259259259300e-01 5.648148148148147696e-01 5.694444444444444198e-01 5.879629629629629095e-01 5.972222222222222099e-01 6.111111111111111605e-01 5.879629629629629095e-01 5.740740740740740700e-01 6.574074074074074403e-01 6.157407407407406996e-01 5.925925925925925597e-01 6.111111111111111605e-01 6.388888888888888395e-01 6.527777777777777901e-01 6.111111111111111605e-01 6.527777777777777901e-01 6.481481481481481399e-01 6.620370370370370905e-01 6.435185185185184897e-01 6.666666666666666297e-01 6.388888888888888395e-01 6.203703703703703498e-01 6.527777777777777901e-01 6.435185185185184897e-01 6.620370370370370905e-01 6.527777777777777901e-01
0.000000000000000000e+00 2.745098039215686514e-01 1.960784313725490169e-01 3.529411764705882582e-01 5.098039215686274161e-01 3.725490196078431460e-01 3.333333333333333148e-01 5.882352941176470784e-01 5.098039215686274161e-01 5.294117647058823595e-01 7.058823529411765163e-01 5.294117647058823595e-01 6.078431372549019107e-01 6.078431372549019107e-01 6.470588235294117974e-01 7.058823529411765163e-01 6.274509803921568540e-01 6.274509803921568540e-01 5.686274509803921351e-01 5.098039215686274161e-01 5.098039215686274161e-01 6.078431372549019107e-01 5.686274509803921351e-01 4.705882352941176405e-01 5.882352941176470784e-01 5.882352941176470784e-01 5.882352941176470784e-01 5.490196078431373028e-01 5.882352941176470784e-01 4.901960784313725283e-01 5.686274509803921351e-01 6.470588235294117974e-01 4.705882352941176405e-01 5.490196078431373028e-01 5.686274509803921351e-01 5.294117647058823595e-01 5.294117647058823595e-01 5.098039215686274161e-01 5.882352941176470784e-01 4.901960784313725283e-01 4.901960784313725283e-01 4.901960784313725283e-01 5.098039215686274161e-01 4.901960784313725283e-01 4.901960784313725283e-01 5.686274509803921351e-01 5.294117647058823595e-01 4.901960784313725283e-01 4.705882352941176405e-01 4.901960784313725283e-01
8.606060606060605966e-01 6.606060606060606410e-01 7.818181818181818565e-01 5.818181818181817899e-01 5.030303030303030498e-01 6.363636363636363535e-01 6.909090909090909172e-01 4.363636363636363424e-01 5.212121212121212377e-01 5.151515151515151381e-01 3.575757575757576023e-01 4.969696969696969502e-01 4.787878787878787623e-01 4.484848484848484862e-01 4.666666666666666741e-01 4.363636363636363424e-01 4.424242424242424421e-01 4.787878787878787623e-01 5.515151515151515138e-01 6.121212121212120660e-01 5.999999999999999778e-01 4.909090909090909061e-01 5.878787878787878896e-01 6.606060606060606410e-01 5.393939393939394256e-01 5.575757575757576134e-01 5.636363636363636020e-01 5.999999999999999778e-01 5.999999999999999778e-01 6.484848484848484418e-01 5.939393939393939892e-01 5.515151515151515138e-01 7.151515151515152047e-01 6.363636363636363535e-01 5.999999999999999778e-01 6.363636363636363535e-01 6.727272727272727293e-01 6.969696969696970168e-01 6.181818181818181657e-01 7.030303030303030054e-01 6.969696969696970168e-01 7.151515151515152047e-01 6.848484848484848175e-01 7.212121212121211933e-01 6.848484848484848175e-01 6.363636363636363535e-01 6.909090909090909172e-01 6.909090909090909172e-01 7.212121212121211933e-01 7.030303030303030054e-01
