6.818819758946552678e-01 6.453797671620988829e-01 6.249455516097239816e-01 6.155767964313753060e-01 6.110558986649035074e-01 6.012184351630922574e-01 6.031302380438391397e-01 5.915678475451257023e-01 5.882832214295391493e-01 5.826618757934723947e-01 5.726271311938208042e-01 5.675443468890513099e-01 5.596460652563514104e-01 5.538126605342046371e-01 5.422480742399495846e-01 5.320833167860410384e-01 5.248353708418093122e-01 5.175484280369433421e-01 5.120460213709895347e-01 5.029960431935569520e-01 4.965524297005021737e-01 4.807014545263622596e-01 4.675440460375125951e-01 4.569909366410207507e-01 4.617761287284786187e-01 4.325917346369741456e-01 4.233133027556173489e-01 4.086968412572917209e-01 3.987411718717628339e-01 3.798013784815136851e-01 3.617058849109555108e-01 3.591320537289498516e-01 3.437395735357616222e-01 3.315338583878410517e-01 3.165616173804347566e-01 3.078189748624907129e-01 2.942601415808085985e-01 2.796616571533435125e-01 2.735355950623511445e-01 2.607670948473747030e-01 2.479657861379723494e-01 2.502842855610182826e-01 2.306528495734479489e-01 2.174615628223436625e-01 2.072362841804569755e-01 2.060379831163450248e-01 1.934161900683878943e-01 1.789760614844114472e-01 1.713890451164338247e-01 1.701505571464452804e-01
6.078571428571428470e+01 6.795238095238094900e+01 6.740476190476189799e+01 6.764285714285713880e+01 6.764285714285713880e+01 6.807142857142856940e+01 6.771428571428570820e+01 6.842857142857143060e+01 6.864285714285713880e+01 6.864285714285713880e+01 7.011904761904762040e+01 7.116666666666667140e+01 7.069047619047618980e+01 7.152380952380951840e+01 7.214285714285713880e+01 7.233333333333332860e+01 7.214285714285713880e+01 7.330952380952381020e+01 7.335714285714286120e+01 7.378571428571429180e+01 7.440476190476189799e+01 7.676190476190475920e+01 7.959523809523810201e+01 7.897619047619048160e+01 7.754761904761905100e+01 8.128571428571429180e+01 8.330952380952381020e+01 8.378571428571429180e+01 8.240476190476189799e+01 8.628571428571429180e+01 8.797619047619048160e+01 8.578571428571429180e+01 8.857142857142856940e+01 8.926190476190475920e+01 9.047619047619048160e+01 8.997619047619048160e+01 9.154761904761905100e+01 9.273809523809524080e+01 9.257142857142856940e+01 9.378571428571429180e+01 9.314285714285713880e+01 9.459523809523810201e+01 9.364285714285713880e+01 9.421428571428570820e+01 9.450000000000000000e+01 9.552380952380951840e+01 9.600000000000000000e+01 9.683333333333332860e+01 9.669047619047618980e+01 9.759523809523810201e+01
1.521428571428571352e+01 4.857142857142856762e+00 0.000000000000000000e+00 0.000000000000000000e+00 0.000000000000000000e+00 nan 0.000000000000000000e+00 1.857142857142857206e+00 2.976190476190476275e+00 5.404761904761905100e+00 7.214285714285714413e+00 1.519047619047618980e+01 1.111904761904761862e+01 1.561904761904761862e+01 nan 1.490476190476190510e+01 1.564285714285714235e+01 1.995238095238095255e+01 2.269047619047618980e+01 2.423809523809523725e+01 2.935714285714285765e+01 3.009523809523809490e+01 3.607142857142856940e+01 3.738095238095237960e+01 3.880952380952381020e+01 nan 4.902380952380952550e+01 nan 4.978571428571428470e+01 nan 6.371428571428571530e+01 5.926190476190475920e+01 6.759523809523810201e+01 6.538095238095237960e+01 7.019047619047618980e+01 7.264285714285713880e+01 7.578571428571429180e+01 7.511904761904762040e+01 7.742857142857143060e+01 8.269047619047618980e+01 8.011904761904762040e+01 8.590476190476189799e+01 7.997619047619048160e+01 nan 8.297619047619048160e+01 nan 8.790476190476189799e+01 8.978571428571429180e+01 nan 9.447619047619048160e+01
8.295238095238094900e+01 9.926190476190475920e+01 1.000000000000000000e+02 1.000000000000000000e+02 1.000000000000000000e+02 1.000000000000000000e+02 1.000000000000000000e+02 1.000000000000000000e+02 1.000000000000000000e+02 9.961904761904762040e+01 1.000000000000000000e+02 9.847619047619048160e+01 9.933333333333332860e+01 9.895238095238094900e+01 9.892857142857143060e+01 9.835714285714286120e+01 9.847619047619048160e+01 9.826190476190475920e+01 9.897619047619048160e+01 9.854761904761905100e+01 9.688095238095237960e+01 9.935714285714286120e+01 9.973809523809524080e+01 9.842857142857143060e+01 9.630952380952381020e+01 9.916666666666667140e+01 9.959523809523810201e+01 9.864285714285713880e+01 9.890476190476189799e+01 9.857142857142856940e+01 9.959523809523810201e+01 9.907142857142856940e+01 9.883333333333332860e+01 9.973809523809524080e+01 9.973809523809524080e+01 9.907142857142856940e+01 9.909523809523810201e+01 1.000000000000000000e+02 9.916666666666667140e+01 9.850000000000000000e+01 9.978571428571429180e+01 9.909523809523810201e+01 9.980952380952381020e+01 9.959523809523810201e+01 9.980952380952381020e+01 9.980952380952381020e+01 9.983333333333332860e+01 9.971428571428570820e+01 1.000000000000000000e+02 9.980952380952381020e+01
6.500000000000000222e-01 6.833333333333333481e-01 6.833333333333333481e-01 6.833333333333333481e-01 6.833333333333333481e-01 6.833333333333333481e-01 6.833333333333333481e-01 6.833333333333333481e-01 6.833333333333333481e-01 6.833333333333333481e-01 6.833333333333333481e-01 6.833333333333333481e-01 6.833333333333333481e-01 6.833333333333333481e-01 6.666666666666666297e-01 6.833333333333333481e-01 6.666666666666666297e-01 6.833333333333333481e-01 6.666666666666666297e-01 6.333333333333333037e-01 6.666666666666666297e-01 6.666666666666666297e-01 6.500000000000000222e-01 6.500000000000000222e-01 6.666666666666666297e-01 6.666666666666666297e-01 6.833333333333333481e-01 6.333333333333333037e-01 6.500000000000000222e-01 6.333333333333333037e-01 6.666666666666666297e-01 5.833333333333333703e-01 6.500000000000000222e-01 5.999999999999999778e-01 6.333333333333333037e-01 6.500000000000000222e-01 6.500000000000000222e-01 5.833333333333333703e-01 6.500000000000000222e-01 6.500000000000000222e-01 6.500000000000000222e-01 6.500000000000000222e-01 5.999999999999999778e-01 6.166666666666666963e-01 6.166666666666666963e-01 6.166666666666666963e-01 6.333333333333333037e-01 5.999999999999999778e-01 5.999999999999999778e-01 6.333333333333333037e-01
0.000000000000000000e+00 0.000000000000000000e+00 0.000000000000000000e+00 0.000000000000000000e+00 0.000000000000000000e+00 0.000000000000000000e+00 0.000000000000000000e+00 0.000000000000000000e+00 0.000000000000000000e+00 0.000000000000000000e+00 5.263157894736841813e-02 0.000000000000000000e+00 0.000000000000000000e+00 5.263157894736841813e-02 0.000000000000000000e+00 0.000000000000000000e+00 1.052631578947368363e-01 0.000000000000000000e+00 0.000000000000000000e+00 1.052631578947368363e-01 0.000000000000000000e+00 0.000000000000000000e+00 0.000000000000000000e+00 0.000000000000000000e+00 2.105263157894736725e-01 1.052631578947368363e-01 1.052631578947368363e-01 0.000000000000000000e+00 0.000000000000000000e+00 1.052631578947368363e-01 0.000000000000000000e+00 5.263157894736841813e-02 5.263157894736841813e-02 5.263157894736841813e-02 1.052631578947368363e-01 0.000000000000000000e+00 0.000000000000000000e+00 2.631578947368420907e-01 1.052631578947368363e-01 5.263157894736841813e-02 0.000000000000000000e+00 0.000000000000000000e+00 1.578947368421052544e-01 5.263157894736841813e-02 1.052631578947368363e-01 1.052631578947368363e-01 0.000000000000000000e+00 0.000000000000000000e+00 0.000000000000000000e+00 0.000000000000000000e+00
9.512195121951219079e-01 1.000000000000000000e+00 1.000000000000000000e+00 1.000000000000000000e+00 1.000000000000000000e+00 1.000000000000000000e+00 1.000000000000000000e+00 1.000000000000000000e+00 1.000000000000000000e+00 1.000000000000000000e+00 9.756097560975609539e-01 1.000000000000000000e+00 1.000000000000000000e+00 9.756097560975609539e-01 9.756097560975609539e-01 1.000000000000000000e+00 9.268292682926829729e-01 1.000000000000000000e+00 9.756097560975609539e-01 8.780487804878048808e-01 9.756097560975609539e-01 9.756097560975609539e-01 9.512195121951219079e-01 9.512195121951219079e-01 8.780487804878048808e-01 9.268292682926829729e-01 9.512195121951219079e-01 9.268292682926829729e-01 9.512195121951219079e-01 8.780487804878048808e-01 9.756097560975609539e-01 8.292682926829267887e-01 9.268292682926829729e-01 8.536585365853658347e-01 8.780487804878048808e-01 9.512195121951219079e-01 9.512195121951219079e-01 7.317073170731707155e-01 9.024390243902439268e-01 9.268292682926829729e-01 9.512195121951219079e-01 9.512195121951219079e-01 8.048780487804878536e-01 8.780487804878048808e-01 8.536585365853658347e-01 8.536585365853658347e-01 9.268292682926829729e-01 8.780487804878048808e-01 8.780487804878048808e-01 9.268292682926829729e-01
