6.889412232786915613e-01 6.706106951275035977e-01 6.519328060819736814e-01 6.409257088949247283e-01 6.020561022728956324e-01 5.869582408391673667e-01 5.650135584214518447e-01 5.484205198426225225e-01 5.383470145472953883e-01 5.295748631511482118e-01 5.114813922876462193e-01 4.924687801633099715e-01 4.808777814833810060e-01 4.686509041367371009e-01 4.583795928462807701e-01 4.461421439682690115e-01 4.335719919551841439e-01 4.240811691579098319e-01 4.148026565339282823e-01 4.105080428114463720e-01 3.938821383803238763e-01 3.837123077458024500e-01 3.744553976197872447e-01 3.649005129503981593e-01 3.537331936917231245e-01 3.413874363804889067e-01 3.328508898508493186e-01 3.212429948745283426e-01 3.130850614435583545e-01 3.048375609452539936e-01 2.950783423905928848e-01 2.842513000110297172e-01 2.764106207705245288e-01 2.662952610284169963e-01 2.570651480796718458e-01 2.470290221277867682e-01 2.398791898440912895e-01 2.350467460817927956e-01 2.229298051711634254e-01 2.165552058058538287e-01 2.071267494966023415e-01 1.995133240695406984e-01 1.928701303051592042e-01 1.865300762101587684e-01 1.822768844417091971e-01 1.713847210951814359e-01 1.661930740770298787e-01 1.602969898926562831e-01 1.576083521688567413e-01 1.488001245870809452e-01
4.922727272727272663e+01 5.845454545454545325e+01 6.222727272727272663e+01 6.527272727272726627e+01 7.050000000000000000e+01 7.595454545454545325e+01 7.668181818181818699e+01 7.700000000000000000e+01 7.704545454545454675e+01 8.195454545454545325e+01 8.268181818181818699e+01 8.563636363636364024e+01 8.404545454545454675e+01 8.650000000000000000e+01 8.759090909090909349e+01 8.986363636363635976e+01 9.018181818181818699e+01 9.022727272727273373e+01 8.868181818181818699e+01 9.213636363636364024e+01 9.445454545454545325e+01 9.468181818181818699e+01 9.418181818181818699e+01 9.381818181818181301e+01 9.468181818181818699e+01 9.554545454545454675e+01 9.531818181818181301e+01 9.613636363636364024e+01 9.440909090909090651e+01 9.668181818181818699e+01 9.609090909090909349e+01 9.672727272727273373e+01 9.640909090909090651e+01 9.695454545454545325e+01 9.695454545454545325e+01 9.690909090909090651e+01 9.695454545454545325e+01 9.722727272727273373e+01 9.727272727272726627e+01 9.718181818181818699e+01 9.754545454545454675e+01 9.727272727272726627e+01 9.727272727272726627e+01 9.750000000000000000e+01 9.718181818181818699e+01 9.754545454545454675e+01 9.777272727272726627e+01 9.809090909090909349e+01 9.777272727272726627e+01 9.836363636363635976e+01
7.636363636363636687e+00 3.327272727272727337e+01 6.772727272727273373e+01 5.727272727272727337e+01 8.063636363636364024e+01 8.354545454545454675e+01 8.827272727272726627e+01 9.090909090909090651e+01 9.050000000000000000e+01 9.104545454545454675e+01 9.227272727272726627e+01 9.104545454545454675e+01 9.218181818181818699e+01 9.350000000000000000e+01 9.395454545454545325e+01 9.390909090909090651e+01 9.518181818181818699e+01 9.309090909090909349e+01 9.254545454545454675e+01 9.345454545454545325e+01 9.481818181818181301e+01 9.422727272727273373e+01 9.390909090909090651e+01 9.459090909090909349e+01 9.359090909090909349e+01 9.404545454545454675e+01 9.377272727272726627e+01 9.577272727272726627e+01 9.468181818181818699e+01 9.418181818181818699e+01 9.331818181818181301e+01 9.381818181818181301e+01 9.495454545454545325e+01 9.459090909090909349e+01 9.390909090909090651e+01 9.359090909090909349e+01 9.440909090909090651e+01 9.481818181818181301e+01 9.481818181818181301e+01 9.459090909090909349e+01 9.527272727272726627e+01 9.468181818181818699e+01 9.490909090909090651e+01 9.531818181818181301e+01 9.477272727272726627e+01 9.495454545454545325e+01 9.586363636363635976e+01 9.650000000000000000e+01 9.600000000000000000e+01 9.690909090909090651e+01
8.959090909090909349e+01 8.331818181818181301e+01 5.400000000000000000e+01 7.440909090909090651e+01 6.090909090909090651e+01 6.890909090909090651e+01 6.681818181818181301e+01 6.313636363636363313e+01 6.472727272727273373e+01 7.354545454545454675e+01 7.459090909090909349e+01 7.890909090909090651e+01 7.440909090909090651e+01 7.886363636363635976e+01 8.090909090909090651e+01 8.686363636363635976e+01 8.572727272727273373e+01 8.768181818181818699e+01 8.427272727272726627e+01 9.163636363636364024e+01 9.540909090909090651e+01 9.540909090909090651e+01 9.422727272727273373e+01 9.227272727272726627e+01 9.486363636363635976e+01 9.686363636363635976e+01 9.631818181818181301e+01 9.659090909090909349e+01 9.363636363636364024e+01 9.936363636363635976e+01 9.790909090909090651e+01 9.954545454545454675e+01 9.777272727272726627e+01 1.000000000000000000e+02 1.000000000000000000e+02 1.000000000000000000e+02 9.890909090909090651e+01 9.950000000000000000e+01 1.000000000000000000e+02 1.000000000000000000e+02 1.000000000000000000e+02 1.000000000000000000e+02 1.000000000000000000e+02 1.000000000000000000e+02 1.000000000000000000e+02 1.000000000000000000e+02 1.000000000000000000e+02 9.954545454545454675e+01 9.936363636363635976e+01 1.000000000000000000e+02
5.310344827586206407e-01 4.206896551724138011e-01 5.103448275862069172e-01 4.275862068965517460e-01 5.172413793103448620e-01 4.206896551724138011e-01 4.137931034482758563e-01 4.551724137931034697e-01 4.758620689655172487e-01 4.965517241379310276e-01 4.758620689655172487e-01 4.413793103448275801e-01 4.551724137931034697e-01 4.551724137931034697e-01 4.551724137931034697e-01 4.551724137931034697e-01 4.689655172413793038e-01 4.758620689655172487e-01 4.758620689655172487e-01 4.827586206896551935e-01 4.551724137931034697e-01 4.620689655172413590e-01 4.758620689655172487e-01 4.689655172413793038e-01 4.689655172413793038e-01 4.827586206896551935e-01 4.827586206896551935e-01 4.965517241379310276e-01 4.620689655172413590e-01 4.896551724137930828e-01 4.758620689655172487e-01 4.827586206896551935e-01 4.827586206896551935e-01 4.965517241379310276e-01 4.965517241379310276e-01 5.034482758620689724e-01 5.172413793103448620e-01 5.103448275862069172e-01 5.034482758620689724e-01 5.172413793103448620e-01 4.896551724137930828e-01 5.103448275862069172e-01 5.034482758620689724e-01 5.034482758620689724e-01 5.034482758620689724e-01 5.103448275862069172e-01 5.172413793103448620e-01 5.034482758620689724e-01 5.034482758620689724e-01 5.103448275862069172e-01
1.525423728813559421e-01 6.949152542372881713e-01 2.542372881355932090e-01 7.796610169491525744e-01 5.593220338983050377e-01 7.288135593220338437e-01 8.644067796610169774e-01 6.949152542372881713e-01 6.779661016949152241e-01 7.118644067796610075e-01 7.118644067796610075e-01 8.474576271186440302e-01 7.966101694915254106e-01 7.966101694915254106e-01 7.796610169491525744e-01 8.305084745762711940e-01 8.135593220338983578e-01 7.118644067796610075e-01 6.271186440677966045e-01 7.966101694915254106e-01 7.288135593220338437e-01 7.627118644067796271e-01 7.966101694915254106e-01 7.118644067796610075e-01 6.779661016949152241e-01 7.288135593220338437e-01 7.118644067796610075e-01 5.762711864406779849e-01 5.762711864406779849e-01 7.118644067796610075e-01 6.610169491525423879e-01 6.271186440677966045e-01 5.932203389830508211e-01 6.610169491525423879e-01 6.101694915254237683e-01 6.101694915254237683e-01 5.593220338983050377e-01 6.101694915254237683e-01 6.101694915254237683e-01 6.101694915254237683e-01 5.593220338983050377e-01 5.932203389830508211e-01 6.101694915254237683e-01 5.762711864406779849e-01 5.762711864406779849e-01 5.932203389830508211e-01 6.101694915254237683e-01 5.593220338983050377e-01 5.762711864406779849e-01 5.762711864406779849e-01
7.906976744186046124e-01 2.325581395348837177e-01 6.860465116279069742e-01 1.860465116279069742e-01 4.883720930232557933e-01 2.093023255813953598e-01 1.046511627906976799e-01 2.906976744186046679e-01 3.372093023255813837e-01 3.488372093023255904e-01 3.139534883720930258e-01 1.627906976744186163e-01 2.209302325581395388e-01 2.209302325581395388e-01 2.325581395348837177e-01 1.976744186046511531e-01 2.325581395348837177e-01 3.139534883720930258e-01 3.720930232558139483e-01 2.674418604651162545e-01 2.674418604651162545e-01 2.558139534883721034e-01 2.558139534883721034e-01 3.023255813953488191e-01 3.255813953488372325e-01 3.139534883720930258e-01 3.255813953488372325e-01 4.418604651162790775e-01 3.837209302325581550e-01 3.372093023255813837e-01 3.488372093023255904e-01 3.837209302325581550e-01 4.069767441860465129e-01 3.837209302325581550e-01 4.186046511627907196e-01 4.302325581395348708e-01 4.883720930232557933e-01 4.418604651162790775e-01 4.302325581395348708e-01 4.534883720930232287e-01 4.418604651162790775e-01 4.534883720930232287e-01 4.302325581395348708e-01 4.534883720930232287e-01 4.534883720930232287e-01 4.534883720930232287e-01 4.534883720930232287e-01 4.651162790697674354e-01 4.534883720930232287e-01 4.651162790697674354e-01
