8.676063293687183986e-01 6.497111541972845350e-01 6.177609064293210217e-01 6.130409169918857870e-01 6.068447431060485231e-01 6.014862484415062216e-01 5.970727161981631559e-01 5.901814596971962645e-01 5.851542214513756335e-01 5.796182801638497528e-01 5.722674695739988771e-01 5.658957746654050824e-01 5.555684231838676768e-01 5.502607288141735387e-01 5.406730405398775252e-01 5.324044911679811642e-01 5.283244742700481389e-01 5.191740593675058246e-01 5.087124628189798603e-01 5.037111619778442684e-01 4.911128493267460926e-01 4.838044041581451848e-01 4.741498214386228871e-01 4.642280201915127691e-01 4.578476138024416553e-01 4.473924083140809471e-01 4.444430547629599215e-01 4.307844137857319011e-01 4.191628231426511864e-01 4.127086145200882794e-01 4.073065964517445514e-01 3.936913208796522512e-01 3.851581356289534575e-01 3.769692593080981036e-01 3.622479927667609512e-01 3.593679532610485894e-01 3.412115028769039937e-01 3.344916554290739419e-01 3.306757904147252791e-01 3.137506893004501918e-01 3.051288563409411680e-01 2.967020256758195473e-01 2.881893951189772318e-01 2.817575436039544412e-01 2.719269091592002585e-01 2.618228211019129614e-01 2.487779103311882622e-01 2.422530741180298763e-01 2.367277975633191867e-01 2.221890232318229075e-01
3.507999999999999829e+01 6.600000000000000000e+01 6.956000000000000227e+01 6.962000000000000455e+01 6.971999999999999886e+01 6.968000000000000682e+01 6.954000000000000625e+01 7.007999999999999829e+01 7.037999999999999545e+01 7.104000000000000625e+01 7.178000000000000114e+01 7.185999999999999943e+01 7.257999999999999829e+01 7.315999999999999659e+01 7.342000000000000171e+01 7.490000000000000568e+01 7.523999999999999488e+01 7.590000000000000568e+01 7.620000000000000284e+01 7.642000000000000171e+01 7.835999999999999943e+01 7.778000000000000114e+01 7.826000000000000512e+01 7.957999999999999829e+01 8.018000000000000682e+01 8.059999999999999432e+01 8.098000000000000398e+01 8.159999999999999432e+01 8.309999999999999432e+01 8.306000000000000227e+01 8.423999999999999488e+01 8.518000000000000682e+01 8.500000000000000000e+01 8.500000000000000000e+01 8.714000000000000057e+01 8.556000000000000227e+01 8.792000000000000171e+01 8.829999999999999716e+01 8.765999999999999659e+01 8.904000000000000625e+01 8.865999999999999659e+01 8.918000000000000682e+01 8.978000000000000114e+01 9.064000000000000057e+01 9.020000000000000284e+01 9.128000000000000114e+01 9.284000000000000341e+01 9.265999999999999659e+01 9.290000000000000568e+01 9.406000000000000227e+01
9.137999999999999545e+01 1.639999999999999858e+01 3.839999999999999858e+00 3.859999999999999876e+00 4.259999999999999787e+00 nan 3.819999999999999840e+00 5.080000000000000071e+00 5.820000000000000284e+00 7.780000000000000249e+00 1.227999999999999936e+01 1.267999999999999972e+01 1.635999999999999943e+01 1.885999999999999943e+01 1.969999999999999929e+01 2.250000000000000000e+01 2.737999999999999901e+01 2.937999999999999901e+01 3.042000000000000171e+01 2.917999999999999972e+01 3.620000000000000284e+01 3.370000000000000284e+01 3.542000000000000171e+01 4.078000000000000114e+01 4.292000000000000171e+01 4.160000000000000142e+01 4.361999999999999744e+01 4.567999999999999972e+01 5.242000000000000171e+01 5.029999999999999716e+01 5.265999999999999659e+01 5.502000000000000313e+01 5.579999999999999716e+01 5.432000000000000028e+01 nan 5.960000000000000142e+01 6.504000000000000625e+01 6.581999999999999318e+01 6.501999999999999602e+01 nan 6.912000000000000455e+01 6.900000000000000000e+01 7.050000000000000000e+01 7.373999999999999488e+01 nan 7.673999999999999488e+01 7.593999999999999773e+01 nan 8.065999999999999659e+01 nan
8.619999999999999218e+00 8.959999999999999432e+01 9.943999999999999773e+01 9.984000000000000341e+01 9.978000000000000114e+01 9.968000000000000682e+01 1.000000000000000000e+02 1.000000000000000000e+02 9.984000000000000341e+01 9.965999999999999659e+01 9.959999999999999432e+01 9.898000000000000398e+01 9.842000000000000171e+01 9.900000000000000000e+01 9.854000000000000625e+01 9.884000000000000341e+01 9.742000000000000171e+01 9.770000000000000284e+01 9.726000000000000512e+01 9.771999999999999886e+01 9.773999999999999488e+01 9.800000000000000000e+01 9.751999999999999602e+01 9.793999999999999773e+01 9.790000000000000568e+01 9.801999999999999602e+01 9.707999999999999829e+01 9.848000000000000398e+01 9.723999999999999488e+01 9.868000000000000682e+01 9.812000000000000455e+01 9.835999999999999943e+01 9.768000000000000682e+01 9.807999999999999829e+01 9.828000000000000114e+01 9.734000000000000341e+01 9.800000000000000000e+01 9.879999999999999716e+01 9.814000000000000057e+01 9.859999999999999432e+01 9.770000000000000284e+01 9.837999999999999545e+01 9.843999999999999773e+01 9.778000000000000114e+01 9.915999999999999659e+01 9.884000000000000341e+01 9.954000000000000625e+01 9.804000000000000625e+01 9.914000000000000057e+01 9.895999999999999375e+01
2.999999999999999889e-01 6.833333333333333481e-01 6.833333333333333481e-01 6.833333333333333481e-01 6.833333333333333481e-01 6.833333333333333481e-01 6.833333333333333481e-01 6.833333333333333481e-01 6.666666666666666297e-01 6.666666666666666297e-01 6.666666666666666297e-01 6.833333333333333481e-01 6.833333333333333481e-01 6.666666666666666297e-01 6.666666666666666297e-01 5.666666666666666519e-01 6.666666666666666297e-01 6.166666666666666963e-01 6.666666666666666297e-01 6.666666666666666297e-01 5.999999999999999778e-01 5.833333333333333703e-01 6.166666666666666963e-01 6.666666666666666297e-01 6.166666666666666963e-01 6.166666666666666963e-01 6.666666666666666297e-01 6.166666666666666963e-01 6.666666666666666297e-01 6.500000000000000222e-01 6.666666666666666297e-01 6.666666666666666297e-01 6.666666666666666297e-01 6.666666666666666297e-01 6.833333333333333481e-01 6.833333333333333481e-01 6.666666666666666297e-01 6.833333333333333481e-01 6.666666666666666297e-01 6.999999999999999556e-01 6.666666666666666297e-01 6.833333333333333481e-01 6.999999999999999556e-01 6.999999999999999556e-01 6.833333333333333481e-01 6.999999999999999556e-01 6.999999999999999556e-01 6.999999999999999556e-01 6.999999999999999556e-01 6.833333333333333481e-01
7.894736842105263275e-01 0.000000000000000000e+00 0.000000000000000000e+00 0.000000000000000000e+00 0.000000000000000000e+00 0.000000000000000000e+00 0.000000000000000000e+00 0.000000000000000000e+00 0.000000000000000000e+00 0.000000000000000000e+00 0.000000000000000000e+00 0.000000000000000000e+00 0.000000000000000000e+00 0.000000000000000000e+00 0.000000000000000000e+00 0.000000000000000000e+00 0.000000000000000000e+00 0.000000000000000000e+00 0.000000000000000000e+00 0.000000000000000000e+00 0.000000000000000000e+00 0.000000000000000000e+00 0.000000000000000000e+00 0.000000000000000000e+00 0.000000000000000000e+00 1.578947368421052544e-01 0.000000000000000000e+00 1.052631578947368363e-01 0.000000000000000000e+00 0.000000000000000000e+00 1.578947368421052544e-01 1.578947368421052544e-01 0.000000000000000000e+00 2.105263157894736725e-01 1.578947368421052544e-01 1.578947368421052544e-01 1.052631578947368363e-01 1.578947368421052544e-01 1.578947368421052544e-01 2.105263157894736725e-01 0.000000000000000000e+00 2.631578947368420907e-01 2.105263157894736725e-01 2.105263157894736725e-01 2.105263157894736725e-01 2.105263157894736725e-01 2.105263157894736725e-01 2.105263157894736725e-01 2.105263157894736725e-01 1.052631578947368363e-01
7.317073170731706877e-02 1.000000000000000000e+00 1.000000000000000000e+00 1.000000000000000000e+00 1.000000000000000000e+00 1.000000000000000000e+00 1.000000000000000000e+00 1.000000000000000000e+00 9.756097560975609539e-01 9.756097560975609539e-01 9.756097560975609539e-01 1.000000000000000000e+00 1.000000000000000000e+00 9.756097560975609539e-01 9.756097560975609539e-01 8.292682926829267887e-01 9.756097560975609539e-01 9.024390243902439268e-01 9.756097560975609539e-01 9.756097560975609539e-01 8.780487804878048808e-01 8.536585365853658347e-01 9.024390243902439268e-01 9.756097560975609539e-01 9.024390243902439268e-01 8.292682926829267887e-01 9.756097560975609539e-01 8.536585365853658347e-01 9.756097560975609539e-01 9.512195121951219079e-01 9.024390243902439268e-01 9.024390243902439268e-01 9.756097560975609539e-01 8.780487804878048808e-01 9.268292682926829729e-01 9.268292682926829729e-01 9.268292682926829729e-01 9.268292682926829729e-01 9.024390243902439268e-01 9.268292682926829729e-01 9.756097560975609539e-01 8.780487804878048808e-01 9.268292682926829729e-01 9.268292682926829729e-01 9.024390243902439268e-01 9.268292682926829729e-01 9.268292682926829729e-01 9.268292682926829729e-01 9.268292682926829729e-01 9.512195121951219079e-01
