XGBoost Undersampling cross validation : 
Start: 2022-06-13 13:29:04.072580
importing data
class balance
spliting variables
Learning :
 	Train :  ['CI04_US', 'CI06_US', 'CI09_US', 'CI21_US'] 
 	Test :  CI02
Learning :
 	Train :  ['CI02_US', 'CI06_US', 'CI09_US', 'CI21_US'] 
 	Test :  CI04
Learning :
 	Train :  ['CI02_US', 'CI04_US', 'CI09_US', 'CI21_US'] 
 	Test :  CI06
Learning :
 	Train :  ['CI02_US', 'CI04_US', 'CI06_US', 'CI21_US'] 
 	Test :  CI09
Learning :
 	Train :  ['CI02_US', 'CI04_US', 'CI06_US', 'CI09_US'] 
 	Test :  CI21
Learning done
Saving results
