6.830188729934744130e-01 6.487154845085751909e-01 6.148625657428056224e-01 5.843674060087651334e-01 5.482067989557981580e-01 5.201881496245041037e-01 4.828714046669192461e-01 4.485465290509164094e-01 4.083722740329103762e-01 3.791595500707626298e-01 3.363284187960671745e-01 2.977656409171613450e-01 2.611634596182557111e-01 2.316587303100896000e-01 2.005460931558773197e-01 1.754946943637202550e-01 1.553386540238512192e-01 1.361338686764911599e-01 1.149458684241687345e-01 1.051410972816509692e-01 9.333144270471517567e-02 8.502770020803560036e-02 7.877034789119236047e-02 7.190226976614455534e-02 6.164737003886818639e-02 5.509844363238402404e-02 5.105109587177538572e-02 4.597247735768470595e-02 4.584477718455963469e-02 4.118376338326482089e-02 3.834779071232957692e-02 3.365046042572347740e-02 2.980240860799489647e-02 2.950684074516905439e-02 3.102218840583804982e-02 2.536097423103609791e-02 2.460104932027210381e-02 2.071973142338352086e-02 1.953638028208035810e-02 1.937944940207732281e-02 1.683669710772836212e-02 1.599056605631638331e-02 1.534886673983938341e-02 1.578447818220552953e-02 1.663245214279946566e-02 1.966362157173098812e-02 1.593425454485701900e-02 1.225060605941553395e-02 1.139134925209239237e-02 1.194863270512729753e-02
7.805813938668630936e-01 9.460649663962207301e-01 9.433531882693466653e-01 8.798391486255867644e-01 9.219828508432629244e-01 8.885714556407002807e-01 8.648687983022153025e-01 8.301015140362155709e-01 8.301015140362155709e-01 8.180604562597367790e-01 8.361220429244550223e-01 8.180604562597367790e-01 8.180604562597367790e-01 8.180604562597367790e-01 8.180604562597367790e-01 8.180604562597367790e-01 8.120399273714973276e-01 8.120399273714973276e-01 8.120399273714973276e-01 8.180604562597367790e-01 8.120399273714973276e-01 8.120399273714973276e-01 8.120399273714973276e-01 8.120399273714973276e-01 8.120399273714973276e-01 8.120399273714973276e-01 8.120399273714973276e-01 8.120399273714973276e-01 8.120399273714973276e-01 8.120399273714973276e-01 8.120399273714973276e-01 8.120399273714973276e-01 8.120399273714973276e-01 8.120399273714973276e-01 8.120399273714973276e-01 8.120399273714973276e-01 8.120399273714973276e-01 8.120399273714973276e-01 8.120399273714973276e-01 8.120399273714973276e-01 8.120399273714973276e-01 8.120399273714973276e-01 8.120399273714973276e-01 8.120399273714973276e-01 8.120399273714973276e-01 8.120399273714973276e-01 8.120399273714973276e-01 8.120399273714973276e-01 8.120399273714973276e-01 8.120399273714973276e-01
5.635999999999999943e+01 6.876000000000000512e+01 7.240000000000000568e+01 7.371999999999999886e+01 8.251999999999999602e+01 8.359999999999999432e+01 8.648000000000000398e+01 9.187999999999999545e+01 9.520000000000000284e+01 9.612000000000000455e+01 9.664000000000000057e+01 9.792000000000000171e+01 9.779999999999999716e+01 9.784000000000000341e+01 9.784000000000000341e+01 9.856000000000000227e+01 9.856000000000000227e+01 9.879999999999999716e+01 9.856000000000000227e+01 9.904000000000000625e+01 9.904000000000000625e+01 9.848000000000000398e+01 9.904000000000000625e+01 9.879999999999999716e+01 9.928000000000000114e+01 9.904000000000000625e+01 9.904000000000000625e+01 9.928000000000000114e+01 9.904000000000000625e+01 9.928000000000000114e+01 9.951999999999999602e+01 9.951999999999999602e+01 1.000000000000000000e+02 9.951999999999999602e+01 9.951999999999999602e+01 9.976000000000000512e+01 9.976000000000000512e+01 1.000000000000000000e+02 1.000000000000000000e+02 1.000000000000000000e+02 1.000000000000000000e+02 1.000000000000000000e+02 1.000000000000000000e+02 9.976000000000000512e+01 9.976000000000000512e+01 9.976000000000000512e+01 1.000000000000000000e+02 1.000000000000000000e+02 1.000000000000000000e+02 1.000000000000000000e+02
8.748000000000000398e+01 9.000000000000000000e+01 9.912000000000000455e+01 1.000000000000000000e+02 1.000000000000000000e+02 1.000000000000000000e+02 1.000000000000000000e+02 9.943999999999999773e+01 1.000000000000000000e+02 9.956000000000000227e+01 9.795999999999999375e+01 9.915999999999999659e+01 9.776000000000000512e+01 9.859999999999999432e+01 9.792000000000000171e+01 9.856000000000000227e+01 9.868000000000000682e+01 9.923999999999999488e+01 9.912000000000000455e+01 9.892000000000000171e+01 9.895999999999999375e+01 9.900000000000000000e+01 9.831999999999999318e+01 9.864000000000000057e+01 9.923999999999999488e+01 9.907999999999999829e+01 9.895999999999999375e+01 9.884000000000000341e+01 9.900000000000000000e+01 9.968000000000000682e+01 9.956000000000000227e+01 9.956000000000000227e+01 1.000000000000000000e+02 9.951999999999999602e+01 9.968000000000000682e+01 1.000000000000000000e+02 1.000000000000000000e+02 1.000000000000000000e+02 1.000000000000000000e+02 1.000000000000000000e+02 1.000000000000000000e+02 1.000000000000000000e+02 1.000000000000000000e+02 1.000000000000000000e+02 1.000000000000000000e+02 1.000000000000000000e+02 1.000000000000000000e+02 1.000000000000000000e+02 1.000000000000000000e+02 1.000000000000000000e+02
2.312000000000000099e+01 4.771999999999999886e+01 4.352000000000000313e+01 4.488000000000000256e+01 6.275999999999999801e+01 6.884000000000000341e+01 7.164000000000000057e+01 8.371999999999999886e+01 8.971999999999999886e+01 9.223999999999999488e+01 9.556000000000000227e+01 9.659999999999999432e+01 9.751999999999999602e+01 9.684000000000000341e+01 9.831999999999999318e+01 9.856000000000000227e+01 9.859999999999999432e+01 9.823999999999999488e+01 9.800000000000000000e+01 9.915999999999999659e+01 9.904000000000000625e+01 9.828000000000000114e+01 9.943999999999999773e+01 9.912000000000000455e+01 9.951999999999999602e+01 9.912000000000000455e+01 9.879999999999999716e+01 9.943999999999999773e+01 9.915999999999999659e+01 9.884000000000000341e+01 9.951999999999999602e+01 9.943999999999999773e+01 1.000000000000000000e+02 9.959999999999999432e+01 9.956000000000000227e+01 9.943999999999999773e+01 9.943999999999999773e+01 1.000000000000000000e+02 1.000000000000000000e+02 1.000000000000000000e+02 1.000000000000000000e+02 1.000000000000000000e+02 1.000000000000000000e+02 9.964000000000000057e+01 9.951999999999999602e+01 9.951999999999999602e+01 1.000000000000000000e+02 1.000000000000000000e+02 1.000000000000000000e+02 1.000000000000000000e+02
5.825242718446601575e-01 3.495145631067961278e-01 3.689320388349514590e-01 4.563106796116505048e-01 3.883495145631067902e-01 4.271844660194174526e-01 4.466019417475728392e-01 4.951456310679611672e-01 4.951456310679611672e-01 5.145631067961164984e-01 4.854368932038835016e-01 5.145631067961164984e-01 5.145631067961164984e-01 5.145631067961164984e-01 5.145631067961164984e-01 5.145631067961164984e-01 5.242718446601941640e-01 5.242718446601941640e-01 5.242718446601941640e-01 5.145631067961164984e-01 5.242718446601941640e-01 5.242718446601941640e-01 5.242718446601941640e-01 5.242718446601941640e-01 5.242718446601941640e-01 5.242718446601941640e-01 5.242718446601941640e-01 5.242718446601941640e-01 5.242718446601941640e-01 5.242718446601941640e-01 5.242718446601941640e-01 5.242718446601941640e-01 5.242718446601941640e-01 5.242718446601941640e-01 5.242718446601941640e-01 5.242718446601941640e-01 5.242718446601941640e-01 5.242718446601941640e-01 5.242718446601941640e-01 5.242718446601941640e-01 5.242718446601941640e-01 5.242718446601941640e-01 5.242718446601941640e-01 5.242718446601941640e-01 5.242718446601941640e-01 5.242718446601941640e-01 5.242718446601941640e-01 5.242718446601941640e-01 5.242718446601941640e-01 5.242718446601941640e-01
5.945945945945946276e-01 8.378378378378378288e-01 9.459459459459459429e-01 8.378378378378378288e-01 8.378378378378378288e-01 7.297297297297297147e-01 5.945945945945946276e-01 5.405405405405405705e-01 5.405405405405405705e-01 5.405405405405405705e-01 5.405405405405405705e-01 5.405405405405405705e-01 5.405405405405405705e-01 5.405405405405405705e-01 5.405405405405405705e-01 5.405405405405405705e-01 5.405405405405405705e-01 5.405405405405405705e-01 5.405405405405405705e-01 5.405405405405405705e-01 5.405405405405405705e-01 5.405405405405405705e-01 5.405405405405405705e-01 5.405405405405405705e-01 5.405405405405405705e-01 5.405405405405405705e-01 5.405405405405405705e-01 5.405405405405405705e-01 5.405405405405405705e-01 5.405405405405405705e-01 5.405405405405405705e-01 5.405405405405405705e-01 5.405405405405405705e-01 5.405405405405405705e-01 5.405405405405405705e-01 5.405405405405405705e-01 5.405405405405405705e-01 5.405405405405405705e-01 5.405405405405405705e-01 5.405405405405405705e-01 5.405405405405405705e-01 5.405405405405405705e-01 5.405405405405405705e-01 5.405405405405405705e-01 5.405405405405405705e-01 5.405405405405405705e-01 5.405405405405405705e-01 5.405405405405405705e-01 5.405405405405405705e-01 5.405405405405405705e-01
5.757575757575758013e-01 7.575757575757575968e-02 4.545454545454545581e-02 2.424242424242424310e-01 1.363636363636363535e-01 2.575757575757575690e-01 3.636363636363636465e-01 4.696969696969697239e-01 4.696969696969697239e-01 5.000000000000000000e-01 4.545454545454545303e-01 5.000000000000000000e-01 5.000000000000000000e-01 5.000000000000000000e-01 5.000000000000000000e-01 5.000000000000000000e-01 5.151515151515151381e-01 5.151515151515151381e-01 5.151515151515151381e-01 5.000000000000000000e-01 5.151515151515151381e-01 5.151515151515151381e-01 5.151515151515151381e-01 5.151515151515151381e-01 5.151515151515151381e-01 5.151515151515151381e-01 5.151515151515151381e-01 5.151515151515151381e-01 5.151515151515151381e-01 5.151515151515151381e-01 5.151515151515151381e-01 5.151515151515151381e-01 5.151515151515151381e-01 5.151515151515151381e-01 5.151515151515151381e-01 5.151515151515151381e-01 5.151515151515151381e-01 5.151515151515151381e-01 5.151515151515151381e-01 5.151515151515151381e-01 5.151515151515151381e-01 5.151515151515151381e-01 5.151515151515151381e-01 5.151515151515151381e-01 5.151515151515151381e-01 5.151515151515151381e-01 5.151515151515151381e-01 5.151515151515151381e-01 5.151515151515151381e-01 5.151515151515151381e-01
