6.695922889380429011e-01 6.338993145359886894e-01 6.223266461412563233e-01 6.176852802793034725e-01 6.129928417127542550e-01 6.077965996181121655e-01 6.033950595354492519e-01 6.006166568576273290e-01 5.953043101886358324e-01 5.903698593810802198e-01 5.828527033404268254e-01 5.873653564479841549e-01 5.681098571812706055e-01 5.552831738385415328e-01 5.483199964004634719e-01 5.418734140488355999e-01 5.291448750884760743e-01 5.153856696943150961e-01 5.131578399643901278e-01 5.031290546506014261e-01 4.810086702677330295e-01 4.698540730815794486e-01 4.643729130997360510e-01 4.384505858039174919e-01 4.214291778931658072e-01 4.115750232102238226e-01 3.995693998898272592e-01 3.862798457859450418e-01 3.752511793468191748e-01 3.932942822594827081e-01 3.550978839441013002e-01 3.410369245709601871e-01 3.267759247988771820e-01 3.174808482772185636e-01 3.220164678824553040e-01 3.037977721977023760e-01 3.041598880881310474e-01 2.886574886533042061e-01 2.761961564240825728e-01 2.698546558600132261e-01 2.848324204595394926e-01 2.725383822174303750e-01 2.398493965746996692e-01 2.328601299754210208e-01 2.198221250862153475e-01 2.127006733474599010e-01 2.243033964463718444e-01 2.029123269409372488e-01 1.937006088142264049e-01 1.743937839404124390e-01
6.931471824645996094e-01 6.931471824645996094e-01 6.931471824645996094e-01 6.931471824645996094e-01 6.931471824645996094e-01 6.931471824645996094e-01 6.931471824645996094e-01 6.912285687044413818e-01 6.974923512851348706e-01 7.141676903373063157e-01 6.943604599947881262e-01 6.974923512851348706e-01 6.999189063455119042e-01 7.049694113960169872e-01 7.047720164662659714e-01 7.079039077566127158e-01 7.068880251561752148e-01 7.105278577467407652e-01 7.583247147726289716e-01 7.148730265672760265e-01 7.061826889262055040e-01 7.397307619602992990e-01 7.093145802165522484e-01 7.348776518395452317e-01 7.049694113960169872e-01 7.180049178576228819e-01 7.303350880892589547e-01 7.373042068999222654e-01 7.247766417385351767e-01 7.030507976358587596e-01 7.498317720613094650e-01 7.259899192687236935e-01 7.105278577467407652e-01 7.459945445409928988e-01 7.242687004383163707e-01 7.061826889262055040e-01 7.466998807709626096e-01 7.061826889262055040e-01 7.428626532506461544e-01 7.628672785229153597e-01 7.508476546617469660e-01 7.365988706699525546e-01 7.510450495914979818e-01 7.317457605491984873e-01 7.385174844301107822e-01 7.404360981902691208e-01 7.541769408818447262e-01 7.223500866781581431e-01 7.305324830190099705e-01 7.124464715068991039e-01
6.733333333333332860e+01 6.836363636363635976e+01 6.830303030303029743e+01 6.827272727272726627e+01 6.827272727272726627e+01 6.836363636363635976e+01 6.830303030303029743e+01 6.866666666666667140e+01 6.833333333333332860e+01 7.000000000000000000e+01 7.296969696969696884e+01 6.966666666666667140e+01 7.096969696969696884e+01 7.215151515151515582e+01 7.321212121212121815e+01 7.242424242424242209e+01 7.303030303030303116e+01 7.472727272727273373e+01 7.496969696969696884e+01 7.424242424242424931e+01 7.727272727272726627e+01 7.687878787878787534e+01 7.854545454545454675e+01 8.012121212121212466e+01 8.072727272727273373e+01 8.145454545454545325e+01 8.224242424242424931e+01 8.375757575757575069e+01 8.366666666666667140e+01 8.333333333333332860e+01 8.363636363636364024e+01 8.615151515151515582e+01 8.709090909090909349e+01 8.721212121212121815e+01 8.612121212121212466e+01 8.809090909090909349e+01 8.700000000000000000e+01 8.806060606060606233e+01 8.848484848484848442e+01 9.003030303030303116e+01 8.681818181818181301e+01 8.942424242424242209e+01 9.090909090909090651e+01 9.078787878787878185e+01 9.242424242424242209e+01 9.348484848484848442e+01 9.254545454545454675e+01 9.257575757575757791e+01 9.372727272727273373e+01 9.445454545454545325e+01
4.242424242424242209e+00 0.000000000000000000e+00 0.000000000000000000e+00 0.000000000000000000e+00 0.000000000000000000e+00 0.000000000000000000e+00 0.000000000000000000e+00 7.878787878787878451e-01 9.393939393939394478e-01 8.060606060606060552e+00 2.206060606060606233e+01 nan 1.042424242424242387e+01 1.866666666666666785e+01 1.927272727272727337e+01 1.757575757575757436e+01 nan 2.427272727272727337e+01 2.648484848484848442e+01 2.839393939393939448e+01 3.536363636363636687e+01 3.530303030303030454e+01 3.915151515151514872e+01 4.154545454545454675e+01 4.406060606060606233e+01 4.696969696969696884e+01 4.739393939393939092e+01 4.933333333333333570e+01 4.996969696969696884e+01 5.524242424242424221e+01 4.948484848484848442e+01 6.293939393939393767e+01 6.169696969696969546e+01 6.209090909090909349e+01 5.975757575757575779e+01 6.969696969696970257e+01 5.954545454545454675e+01 6.530303030303029743e+01 nan 6.842424242424242209e+01 6.457575757575757791e+01 6.842424242424242209e+01 7.215151515151515582e+01 7.400000000000000000e+01 7.678787878787878185e+01 8.387878787878787534e+01 7.921212121212121815e+01 7.860606060606060908e+01 8.296969696969696884e+01 8.300000000000000000e+01
9.672727272727273373e+01 1.000000000000000000e+02 1.000000000000000000e+02 1.000000000000000000e+02 1.000000000000000000e+02 1.000000000000000000e+02 1.000000000000000000e+02 1.000000000000000000e+02 9.978787878787878185e+01 9.848484848484848442e+01 9.666666666666667140e+01 9.827272727272726627e+01 9.909090909090909349e+01 9.736363636363635976e+01 9.893939393939393767e+01 9.769696969696970257e+01 9.745454545454545325e+01 9.824242424242424931e+01 9.778787878787878185e+01 9.639393939393939092e+01 9.821212121212121815e+01 9.715151515151515582e+01 9.742424242424242209e+01 9.803030303030303116e+01 9.827272727272726627e+01 9.778787878787878185e+01 9.781818181818181301e+01 9.842424242424242209e+01 9.830303030303029743e+01 9.712121212121212466e+01 9.833333333333332860e+01 9.869696969696970257e+01 9.833333333333332860e+01 9.918181818181818699e+01 9.812121212121212466e+01 9.766666666666667140e+01 9.927272727272726627e+01 9.893939393939393767e+01 9.842424242424242209e+01 9.878787878787878185e+01 9.778787878787878185e+01 9.790909090909090651e+01 9.890909090909090651e+01 9.827272727272726627e+01 9.942424242424242209e+01 9.830303030303029743e+01 9.863636363636364024e+01 9.951515151515151558e+01 9.863636363636364024e+01 9.939393939393939092e+01
6.565656565656565746e-01 6.565656565656565746e-01 6.565656565656565746e-01 6.565656565656565746e-01 6.565656565656565746e-01 6.565656565656565746e-01 6.565656565656565746e-01 6.616161616161616577e-01 6.515151515151514916e-01 6.363636363636363535e-01 6.565656565656565746e-01 6.515151515151514916e-01 6.515151515151514916e-01 6.414141414141414366e-01 6.515151515151514916e-01 6.464646464646465196e-01 6.363636363636363535e-01 6.363636363636363535e-01 5.808080808080807733e-01 6.313131313131312705e-01 6.414141414141414366e-01 6.010101010101009944e-01 6.363636363636363535e-01 6.010101010101009944e-01 6.414141414141414366e-01 6.262626262626262985e-01 6.161616161616161325e-01 6.010101010101009944e-01 6.212121212121212155e-01 6.464646464646465196e-01 5.808080808080807733e-01 6.212121212121212155e-01 6.363636363636363535e-01 5.909090909090909394e-01 6.161616161616161325e-01 6.414141414141414366e-01 5.858585858585858563e-01 6.414141414141414366e-01 5.959595959595959114e-01 5.656565656565656353e-01 5.909090909090909394e-01 6.060606060606060774e-01 5.808080808080807733e-01 6.060606060606060774e-01 6.010101010101009944e-01 5.959595959595959114e-01 5.757575757575758013e-01 6.212121212121212155e-01 6.060606060606060774e-01 6.313131313131312705e-01
0.000000000000000000e+00 0.000000000000000000e+00 0.000000000000000000e+00 0.000000000000000000e+00 0.000000000000000000e+00 0.000000000000000000e+00 0.000000000000000000e+00 1.470588235294117627e-02 1.470588235294117627e-02 1.029411764705882304e-01 1.470588235294117627e-02 1.470588235294117627e-02 4.411764705882353227e-02 2.941176470588235253e-02 1.029411764705882304e-01 1.029411764705882304e-01 1.470588235294117627e-02 5.882352941176470507e-02 2.205882352941176405e-01 7.352941176470588480e-02 4.411764705882353227e-02 1.470588235294117696e-01 4.411764705882353227e-02 8.823529411764706454e-02 2.941176470588235253e-02 7.352941176470588480e-02 1.470588235294117696e-01 1.176470588235294101e-01 1.176470588235294101e-01 4.411764705882353227e-02 1.176470588235294101e-01 1.323529411764705899e-01 5.882352941176470507e-02 1.470588235294117696e-01 7.352941176470588480e-02 4.411764705882353227e-02 1.176470588235294101e-01 4.411764705882353227e-02 1.470588235294117696e-01 1.617647058823529493e-01 2.058823529411764608e-01 1.470588235294117696e-01 1.323529411764705899e-01 8.823529411764706454e-02 1.323529411764705899e-01 1.176470588235294101e-01 1.323529411764705899e-01 8.823529411764706454e-02 7.352941176470588480e-02 4.411764705882353227e-02
1.000000000000000000e+00 1.000000000000000000e+00 1.000000000000000000e+00 1.000000000000000000e+00 1.000000000000000000e+00 1.000000000000000000e+00 1.000000000000000000e+00 1.000000000000000000e+00 9.846153846153846700e-01 9.153846153846153522e-01 9.923076923076923350e-01 9.846153846153846700e-01 9.692307692307692291e-01 9.615384615384615641e-01 9.384615384615384581e-01 9.307692307692307931e-01 9.615384615384615641e-01 9.384615384615384581e-01 7.692307692307692735e-01 9.230769230769231282e-01 9.538461538461538991e-01 8.384615384615384803e-01 9.461538461538461231e-01 8.692307692307692513e-01 9.615384615384615641e-01 9.153846153846153522e-01 8.615384615384615863e-01 8.538461538461538103e-01 8.846153846153845812e-01 9.615384615384615641e-01 8.230769230769230393e-01 8.769230769230769162e-01 9.384615384615384581e-01 8.230769230769230393e-01 9.000000000000000222e-01 9.538461538461538991e-01 8.307692307692308153e-01 9.538461538461538991e-01 8.307692307692308153e-01 7.769230769230769384e-01 7.923076923076922684e-01 8.461538461538461453e-01 8.153846153846153744e-01 8.769230769230769162e-01 8.461538461538461453e-01 8.461538461538461453e-01 8.076923076923077094e-01 9.000000000000000222e-01 8.846153846153845812e-01 9.384615384615384581e-01
