6.889964903436178734e-01 6.516472523052670995e-01 6.206828354821576355e-01 5.944951275694667636e-01 5.663442221143609734e-01 5.402160952088435053e-01 5.119616960919184390e-01 4.837261590953196855e-01 4.520420344098918242e-01 4.193536862405924381e-01 3.877709169079119889e-01 3.509476362083518430e-01 3.247397426351777971e-01 2.818002411386495987e-01 2.483524182468039576e-01 2.255253435511343774e-01 1.931800795221079170e-01 1.645253043513649205e-01 1.471433083163697919e-01 1.256461061909343868e-01 1.151482576130027774e-01 9.531117302952250847e-02 9.013679565412024974e-02 7.793935374556684725e-02 6.925262947624837018e-02 6.851991562056027052e-02 5.900007525432229838e-02 5.565954242790509959e-02 5.130122699881656256e-02 4.698099732370424053e-02 4.266988108188757289e-02 3.773743327296014138e-02 3.872149618300186474e-02 3.332934879198968386e-02 3.595934936323898906e-02 3.393738621363474178e-02 2.762825534759783333e-02 3.097444648278467605e-02 2.430988399758098051e-02 2.325613472426940609e-02 2.533756082773743964e-02 2.267415844702367136e-02 2.576941417442624171e-02 2.116629684285864163e-02 2.247689390245232247e-02 2.282652113698616786e-02 1.648985714155861912e-02 1.593752084909288297e-02 1.598154137906195385e-02 1.903951585605509825e-02
8.719973835451849675e-01 8.852513946335891504e-01 8.513077283727711331e-01 8.852513946335891504e-01 8.824769842213597837e-01 8.834401330043529788e-01 8.639831727948682483e-01 8.383232634643028591e-01 8.307331091371076282e-01 8.435630638023902117e-01 8.300395065340502310e-01 8.056122921664139458e-01 8.224493522068550000e-01 8.046491433834207507e-01 8.072690435524644270e-01 8.046491433834207507e-01 8.141655952766023718e-01 8.158223466626528531e-01 8.115456951075586955e-01 8.151287440595955669e-01 8.125088438905518906e-01 8.065754409494071409e-01 8.151287440595955669e-01 8.065754409494071409e-01 8.022987893943128723e-01 8.065754409494071409e-01 8.065754409494071409e-01 8.151287440595955669e-01 8.151287440595955669e-01 8.108520925045012984e-01 8.065754409494071409e-01 8.065754409494071409e-01 8.108520925045012984e-01 8.108520925045012984e-01 8.065754409494071409e-01 8.065754409494071409e-01 7.980221378392187148e-01 8.065754409494071409e-01 7.894688347290301778e-01 8.108520925045012984e-01 8.065754409494071409e-01 7.920887348980739651e-01 7.980221378392187148e-01 8.065754409494071409e-01 7.947086350671176413e-01 7.980221378392187148e-01 8.065754409494071409e-01 7.920887348980739651e-01 8.065754409494071409e-01 8.108520925045012984e-01
5.172727272727272663e+01 6.813636363636364024e+01 6.563636363636364024e+01 7.213636363636364024e+01 7.872727272727273373e+01 8.122727272727273373e+01 8.354545454545454675e+01 8.563636363636364024e+01 9.209090909090909349e+01 9.613636363636364024e+01 9.645454545454545325e+01 9.640909090909090651e+01 9.781818181818181301e+01 9.863636363636364024e+01 9.863636363636364024e+01 9.836363636363635976e+01 9.918181818181818699e+01 9.945454545454545325e+01 9.918181818181818699e+01 9.918181818181818699e+01 9.918181818181818699e+01 9.913636363636364024e+01 9.945454545454545325e+01 9.945454545454545325e+01 9.945454545454545325e+01 9.945454545454545325e+01 9.945454545454545325e+01 9.945454545454545325e+01 9.918181818181818699e+01 9.945454545454545325e+01 9.945454545454545325e+01 9.972727272727273373e+01 9.940909090909090651e+01 9.972727272727273373e+01 9.972727272727273373e+01 9.972727272727273373e+01 9.972727272727273373e+01 9.972727272727273373e+01 9.972727272727273373e+01 1.000000000000000000e+02 9.972727272727273373e+01 9.972727272727273373e+01 9.972727272727273373e+01 9.972727272727273373e+01 9.972727272727273373e+01 9.972727272727273373e+01 1.000000000000000000e+02 9.972727272727273373e+01 1.000000000000000000e+02 9.972727272727273373e+01
9.631818181818181301e+01 9.881818181818181301e+01 1.000000000000000000e+02 1.000000000000000000e+02 1.000000000000000000e+02 1.000000000000000000e+02 1.000000000000000000e+02 1.000000000000000000e+02 1.000000000000000000e+02 1.000000000000000000e+02 1.000000000000000000e+02 9.954545454545454675e+01 1.000000000000000000e+02 1.000000000000000000e+02 1.000000000000000000e+02 1.000000000000000000e+02 1.000000000000000000e+02 1.000000000000000000e+02 1.000000000000000000e+02 1.000000000000000000e+02 1.000000000000000000e+02 1.000000000000000000e+02 1.000000000000000000e+02 1.000000000000000000e+02 1.000000000000000000e+02 1.000000000000000000e+02 1.000000000000000000e+02 1.000000000000000000e+02 1.000000000000000000e+02 1.000000000000000000e+02 1.000000000000000000e+02 1.000000000000000000e+02 1.000000000000000000e+02 1.000000000000000000e+02 1.000000000000000000e+02 1.000000000000000000e+02 1.000000000000000000e+02 1.000000000000000000e+02 1.000000000000000000e+02 1.000000000000000000e+02 1.000000000000000000e+02 1.000000000000000000e+02 1.000000000000000000e+02 1.000000000000000000e+02 1.000000000000000000e+02 1.000000000000000000e+02 1.000000000000000000e+02 1.000000000000000000e+02 1.000000000000000000e+02 1.000000000000000000e+02
7.318181818181818343e+00 3.850000000000000000e+01 3.190909090909091006e+01 4.572727272727272663e+01 5.800000000000000000e+01 6.318181818181817988e+01 6.636363636363635976e+01 7.059090909090909349e+01 8.263636363636364024e+01 9.195454545454545325e+01 9.254545454545454675e+01 9.295454545454545325e+01 9.540909090909090651e+01 9.736363636363635976e+01 9.745454545454545325e+01 9.709090909090909349e+01 9.831818181818181301e+01 9.909090909090909349e+01 9.836363636363635976e+01 9.822727272727273373e+01 9.840909090909090651e+01 9.827272727272726627e+01 9.890909090909090651e+01 9.859090909090909349e+01 9.863636363636364024e+01 9.872727272727273373e+01 9.900000000000000000e+01 9.872727272727273373e+01 9.831818181818181301e+01 9.895454545454545325e+01 9.881818181818181301e+01 9.936363636363635976e+01 9.859090909090909349e+01 9.936363636363635976e+01 9.945454545454545325e+01 9.954545454545454675e+01 9.954545454545454675e+01 9.945454545454545325e+01 9.950000000000000000e+01 1.000000000000000000e+02 9.959090909090909349e+01 9.936363636363635976e+01 9.945454545454545325e+01 9.954545454545454675e+01 9.936363636363635976e+01 9.950000000000000000e+01 1.000000000000000000e+02 9.950000000000000000e+01 1.000000000000000000e+02 9.950000000000000000e+01
4.275862068965517460e-01 4.275862068965517460e-01 4.689655172413793038e-01 4.275862068965517460e-01 4.000000000000000222e-01 3.931034482758620774e-01 4.137931034482758563e-01 4.551724137931034697e-01 4.620689655172413590e-01 4.413793103448275801e-01 4.551724137931034697e-01 4.758620689655172487e-01 4.620689655172413590e-01 4.827586206896551935e-01 4.758620689655172487e-01 4.827586206896551935e-01 4.620689655172413590e-01 4.620689655172413590e-01 4.689655172413793038e-01 4.551724137931034697e-01 4.620689655172413590e-01 4.689655172413793038e-01 4.551724137931034697e-01 4.689655172413793038e-01 4.758620689655172487e-01 4.689655172413793038e-01 4.689655172413793038e-01 4.551724137931034697e-01 4.551724137931034697e-01 4.620689655172413590e-01 4.689655172413793038e-01 4.689655172413793038e-01 4.620689655172413590e-01 4.620689655172413590e-01 4.689655172413793038e-01 4.689655172413793038e-01 4.827586206896551935e-01 4.689655172413793038e-01 4.965517241379310276e-01 4.620689655172413590e-01 4.689655172413793038e-01 4.896551724137930828e-01 4.827586206896551935e-01 4.689655172413793038e-01 4.827586206896551935e-01 4.827586206896551935e-01 4.689655172413793038e-01 4.896551724137930828e-01 4.689655172413793038e-01 4.620689655172413590e-01
7.796610169491525744e-01 9.152542372881355970e-01 8.305084745762711940e-01 9.152542372881355970e-01 7.118644067796610075e-01 6.779661016949152241e-01 6.101694915254237683e-01 6.101694915254237683e-01 5.762711864406779849e-01 5.762711864406779849e-01 5.254237288135593653e-01 4.067796610169491789e-01 4.915254237288135819e-01 4.406779661016949068e-01 4.237288135593220151e-01 4.406779661016949068e-01 4.067796610169491789e-01 4.237288135593220151e-01 4.237288135593220151e-01 3.728813559322033955e-01 3.898305084745762872e-01 3.728813559322033955e-01 3.728813559322033955e-01 3.728813559322033955e-01 3.728813559322033955e-01 3.728813559322033955e-01 3.728813559322033955e-01 3.728813559322033955e-01 3.728813559322033955e-01 3.728813559322033955e-01 3.728813559322033955e-01 3.728813559322033955e-01 3.728813559322033955e-01 3.728813559322033955e-01 3.728813559322033955e-01 3.728813559322033955e-01 3.728813559322033955e-01 3.728813559322033955e-01 3.728813559322033955e-01 3.728813559322033955e-01 3.728813559322033955e-01 3.559322033898305038e-01 3.728813559322033955e-01 3.728813559322033955e-01 3.389830508474576121e-01 3.728813559322033955e-01 3.728813559322033955e-01 3.559322033898305038e-01 3.728813559322033955e-01 3.728813559322033955e-01
1.860465116279069742e-01 9.302325581395348708e-02 2.209302325581395388e-01 9.302325581395348708e-02 1.860465116279069742e-01 1.976744186046511531e-01 2.790697674418604612e-01 3.488372093023255904e-01 3.837209302325581550e-01 3.488372093023255904e-01 4.069767441860465129e-01 5.232558139534884134e-01 4.418604651162790775e-01 5.116279069767442067e-01 5.116279069767442067e-01 5.116279069767442067e-01 5.000000000000000000e-01 4.883720930232557933e-01 5.000000000000000000e-01 5.116279069767442067e-01 5.116279069767442067e-01 5.348837209302325091e-01 5.116279069767442067e-01 5.348837209302325091e-01 5.465116279069767158e-01 5.348837209302325091e-01 5.348837209302325091e-01 5.116279069767442067e-01 5.116279069767442067e-01 5.232558139534884134e-01 5.348837209302325091e-01 5.348837209302325091e-01 5.232558139534884134e-01 5.232558139534884134e-01 5.348837209302325091e-01 5.348837209302325091e-01 5.581395348837209225e-01 5.348837209302325091e-01 5.813953488372093359e-01 5.232558139534884134e-01 5.348837209302325091e-01 5.813953488372093359e-01 5.581395348837209225e-01 5.348837209302325091e-01 5.813953488372093359e-01 5.581395348837209225e-01 5.348837209302325091e-01 5.813953488372093359e-01 5.348837209302325091e-01 5.232558139534884134e-01
