6.960025562629380547e-01 6.929358341949045652e-01 6.893958837384707161e-01 6.858592644312738740e-01 6.771569655074165528e-01 6.692492340137323747e-01 6.586543045724829737e-01 6.475200315210895008e-01 6.406261893283045072e-01 6.320211910951184509e-01 6.208465836141840999e-01 6.066023777738519529e-01 5.997779259965319021e-01 5.824633542534138897e-01 5.720686123428458947e-01 5.537411630178757926e-01 5.485949281710782444e-01 5.230060454696650041e-01 5.042650912210229208e-01 4.882028069497028056e-01 5.008838599259252122e-01 4.642538014738238350e-01 4.418546661490108662e-01 4.213918907978950190e-01 4.121091555712337318e-01 4.078039083842196488e-01 3.716855028349709822e-01 3.532312054650855737e-01 3.351031230311491416e-01 3.292664789645096124e-01 3.061805226042163541e-01 3.005712432801732614e-01 2.707874034818155695e-01 2.703556138061303793e-01 2.455112256154229899e-01 2.370398227986635353e-01 2.291356833403778437e-01 2.205486481880913618e-01 2.019726592457246339e-01 1.871106922963217956e-01 1.769154950585942465e-01 1.728108018385086930e-01 1.693113821211775782e-01 1.500469260739929478e-01 1.416461857308211059e-01 1.317896881064051506e-01 1.235797441527865803e-01 1.121457981937378917e-01 1.109551608806440132e-01 1.073135213702336443e-01
6.931471824645996094e-01 6.931471824645996094e-01 8.818825344244639597e-01 8.938939819733301428e-01 9.289035215973854287e-01 7.711738934119541922e-01 9.329073374470074898e-01 7.808577314019202742e-01 8.548806264996529070e-01 8.285301218430201065e-01 8.215472931663195810e-01 8.262025122841198943e-01 8.078596393267313269e-01 8.348615472515423797e-01 8.348615472515423797e-01 8.915663724144299307e-01 8.308577314019203186e-01 7.871891568104426584e-01 8.492006043593088860e-01 8.405415693918864006e-01 8.095358456174532868e-01 7.648424680034319190e-01 8.628882581988970291e-01 7.608386521538098579e-01 8.325339376926421675e-01 7.831853409608204863e-01 8.118634551763534990e-01 7.895167663693427595e-01 7.681948805848757278e-01 7.745263059933980010e-01 8.158672710259755601e-01 8.032044202089310136e-01 7.688462838530540910e-01 8.038558234771092659e-01 8.245263059933980454e-01 8.468729948004086738e-01 8.525530169407526948e-01 8.038558234771092659e-01 8.221986964344978333e-01 7.601872488856316057e-01 8.078596393267313269e-01 7.992006043593088416e-01 7.855129505197206985e-01 7.935205822189649316e-01 8.532044202089309470e-01 8.468729948004086738e-01 8.365377535422643396e-01 8.205224901437759844e-01 7.831853409608204863e-01 7.831853409608204863e-01
4.802000000000000313e+01 5.096000000000000085e+01 5.161999999999999744e+01 5.496000000000000085e+01 5.870000000000000284e+01 5.950000000000000000e+01 6.178000000000000114e+01 6.388000000000000256e+01 6.504000000000000625e+01 6.585999999999999943e+01 6.640000000000000568e+01 6.773999999999999488e+01 6.881999999999999318e+01 7.356000000000000227e+01 7.220000000000000284e+01 7.442000000000000171e+01 7.298000000000000398e+01 7.709999999999999432e+01 7.965999999999999659e+01 7.945999999999999375e+01 7.464000000000000057e+01 8.018000000000000682e+01 8.320000000000000284e+01 8.454000000000000625e+01 8.368000000000000682e+01 8.404000000000000625e+01 8.800000000000000000e+01 8.914000000000000057e+01 8.931999999999999318e+01 8.864000000000000057e+01 9.054000000000000625e+01 9.123999999999999488e+01 9.285999999999999943e+01 9.100000000000000000e+01 9.356000000000000227e+01 9.306000000000000227e+01 9.384000000000000341e+01 9.328000000000000114e+01 9.526000000000000512e+01 9.550000000000000000e+01 9.648000000000000398e+01 9.565999999999999659e+01 9.515999999999999659e+01 9.623999999999999488e+01 9.723999999999999488e+01 9.784000000000000341e+01 9.820000000000000284e+01 9.831999999999999318e+01 9.843999999999999773e+01 9.806000000000000227e+01
1.680000000000000071e+01 3.535999999999999943e+01 1.451999999999999957e+01 5.232000000000000028e+01 6.261999999999999744e+01 8.081999999999999318e+01 7.921999999999999886e+01 8.207999999999999829e+01 7.165999999999999659e+01 8.085999999999999943e+01 7.220000000000000284e+01 7.800000000000000000e+01 7.537999999999999545e+01 8.242000000000000171e+01 7.414000000000000057e+01 7.637999999999999545e+01 7.871999999999999886e+01 8.337999999999999545e+01 8.385999999999999943e+01 7.937999999999999545e+01 6.478000000000000114e+01 8.064000000000000057e+01 8.115999999999999659e+01 8.637999999999999545e+01 8.109999999999999432e+01 8.259999999999999432e+01 8.685999999999999943e+01 9.051999999999999602e+01 8.740000000000000568e+01 8.748000000000000398e+01 8.893999999999999773e+01 9.031999999999999318e+01 9.128000000000000114e+01 8.787999999999999545e+01 9.140000000000000568e+01 9.095999999999999375e+01 9.106000000000000227e+01 9.198000000000000398e+01 9.278000000000000114e+01 9.406000000000000227e+01 9.584000000000000341e+01 9.393999999999999773e+01 9.454000000000000625e+01 9.528000000000000114e+01 9.556000000000000227e+01 9.635999999999999943e+01 9.790000000000000568e+01 9.776000000000000512e+01 9.804000000000000625e+01 9.695999999999999375e+01
8.121999999999999886e+01 6.904000000000000625e+01 9.007999999999999829e+01 6.011999999999999744e+01 5.467999999999999972e+01 3.996000000000000085e+01 4.461999999999999744e+01 4.479999999999999716e+01 5.624000000000000199e+01 5.274000000000000199e+01 6.010000000000000142e+01 5.796000000000000085e+01 6.096000000000000085e+01 6.604000000000000625e+01 6.912000000000000455e+01 7.028000000000000114e+01 6.762000000000000455e+01 7.048000000000000398e+01 7.490000000000000568e+01 7.612000000000000455e+01 8.379999999999999716e+01 8.009999999999999432e+01 8.407999999999999829e+01 8.079999999999999716e+01 8.657999999999999829e+01 8.559999999999999432e+01 8.904000000000000625e+01 8.807999999999999829e+01 8.942000000000000171e+01 8.950000000000000000e+01 9.262000000000000455e+01 9.226000000000000512e+01 9.423999999999999488e+01 9.429999999999999716e+01 9.568000000000000682e+01 9.507999999999999829e+01 9.606000000000000227e+01 9.415999999999999659e+01 9.720000000000000284e+01 9.701999999999999602e+01 9.776000000000000512e+01 9.662000000000000455e+01 9.595999999999999375e+01 9.685999999999999943e+01 9.859999999999999432e+01 9.914000000000000057e+01 9.864000000000000057e+01 9.887999999999999545e+01 9.848000000000000398e+01 9.862000000000000455e+01
6.833333333333333481e-01 6.833333333333333481e-01 4.500000000000000111e-01 4.500000000000000111e-01 4.000000000000000222e-01 5.833333333333333703e-01 4.000000000000000222e-01 5.999999999999999778e-01 5.000000000000000000e-01 5.166666666666667185e-01 5.666666666666666519e-01 5.333333333333333259e-01 5.500000000000000444e-01 5.000000000000000000e-01 5.000000000000000000e-01 4.666666666666666741e-01 5.000000000000000000e-01 5.833333333333333703e-01 4.833333333333333370e-01 5.166666666666667185e-01 5.666666666666666519e-01 5.999999999999999778e-01 5.000000000000000000e-01 5.999999999999999778e-01 5.166666666666667185e-01 5.833333333333333703e-01 5.500000000000000444e-01 5.666666666666666519e-01 6.333333333333333037e-01 6.166666666666666963e-01 5.500000000000000444e-01 5.833333333333333703e-01 5.999999999999999778e-01 5.500000000000000444e-01 5.166666666666667185e-01 5.000000000000000000e-01 5.166666666666667185e-01 5.500000000000000444e-01 5.333333333333333259e-01 6.333333333333333037e-01 5.500000000000000444e-01 5.833333333333333703e-01 5.666666666666666519e-01 5.666666666666666519e-01 4.833333333333333370e-01 5.000000000000000000e-01 5.166666666666667185e-01 5.166666666666667185e-01 5.833333333333333703e-01 5.833333333333333703e-01
0.000000000000000000e+00 0.000000000000000000e+00 5.789473684210526550e-01 7.368421052631578538e-01 7.894736842105263275e-01 2.105263157894736725e-01 8.421052631578946901e-01 4.736842105263157632e-01 6.315789473684210176e-01 4.210526315789473450e-01 7.368421052631578538e-01 5.263157894736841813e-01 4.210526315789473450e-01 3.684210526315789269e-01 3.684210526315789269e-01 8.421052631578946901e-01 3.157894736842105088e-01 4.210526315789473450e-01 4.210526315789473450e-01 5.789473684210526550e-01 5.789473684210526550e-01 2.631578947368420907e-01 7.368421052631578538e-01 2.105263157894736725e-01 4.736842105263157632e-01 3.684210526315789269e-01 4.736842105263157632e-01 3.157894736842105088e-01 5.789473684210526550e-01 5.263157894736841813e-01 5.263157894736841813e-01 6.315789473684210176e-01 3.157894736842105088e-01 3.684210526315789269e-01 3.684210526315789269e-01 5.263157894736841813e-01 7.368421052631578538e-01 3.684210526315789269e-01 4.736842105263157632e-01 4.736842105263157632e-01 4.210526315789473450e-01 5.789473684210526550e-01 2.631578947368420907e-01 3.684210526315789269e-01 4.736842105263157632e-01 5.263157894736841813e-01 5.263157894736841813e-01 3.157894736842105088e-01 3.684210526315789269e-01 3.684210526315789269e-01
1.000000000000000000e+00 1.000000000000000000e+00 3.902439024390244038e-01 3.170731707317073211e-01 2.195121951219512202e-01 7.560975609756097615e-01 1.951219512195122019e-01 6.585365853658536883e-01 4.390243902439024404e-01 5.609756097560976151e-01 4.878048780487804770e-01 5.365853658536585691e-01 6.097560975609755962e-01 5.609756097560976151e-01 5.609756097560976151e-01 2.926829268292682751e-01 5.853658536585365502e-01 6.585365853658536883e-01 5.121951219512195230e-01 4.878048780487804770e-01 5.609756097560976151e-01 7.560975609756097615e-01 3.902439024390244038e-01 7.804878048780488076e-01 5.365853658536585691e-01 6.829268292682927344e-01 5.853658536585365502e-01 6.829268292682927344e-01 6.585365853658536883e-01 6.585365853658536883e-01 5.609756097560976151e-01 5.609756097560976151e-01 7.317073170731707155e-01 6.341463414634146423e-01 5.853658536585365502e-01 4.878048780487804770e-01 4.146341463414633943e-01 6.341463414634146423e-01 5.609756097560976151e-01 7.073170731707316694e-01 6.097560975609755962e-01 5.853658536585365502e-01 7.073170731707316694e-01 6.585365853658536883e-01 4.878048780487804770e-01 4.878048780487804770e-01 5.121951219512195230e-01 6.097560975609755962e-01 6.829268292682927344e-01 6.829268292682927344e-01
