SVM cross validation : 
Start: 2022-06-21 11:40:35.126267
Class 1 weight :  0.1
Kernel :  rbf
importing data
class balance
spliting variables
Learning :
 	Train :  ['CI04_US', 'CI06_US', 'CI09_US', 'CI21_US'] 
 	Test :  CI02
Learning :
 	Train :  ['CI02_US', 'CI06_US', 'CI09_US', 'CI21_US'] 
 	Test :  CI04
Learning :
 	Train :  ['CI02_US', 'CI04_US', 'CI09_US', 'CI21_US'] 
 	Test :  CI06
Learning :
 	Train :  ['CI02_US', 'CI04_US', 'CI06_US', 'CI21_US'] 
 	Test :  CI09
Learning :
 	Train :  ['CI02_US', 'CI04_US', 'CI06_US', 'CI09_US'] 
 	Test :  CI21
Learning done
Saving results
SVM cross validation : 
Start: 2022-06-21 16:22:53.376894
Class 1 weight :  0.5
Kernel :  rbf
importing data
class balance
spliting variables
Learning :
 	Train :  ['CI04_US', 'CI06_US', 'CI09_US', 'CI21_US'] 
 	Test :  CI02
Learning :
 	Train :  ['CI02_US', 'CI06_US', 'CI09_US', 'CI21_US'] 
 	Test :  CI04
Learning :
 	Train :  ['CI02_US', 'CI04_US', 'CI09_US', 'CI21_US'] 
 	Test :  CI06
Learning :
 	Train :  ['CI02_US', 'CI04_US', 'CI06_US', 'CI21_US'] 
 	Test :  CI09
Learning :
 	Train :  ['CI02_US', 'CI04_US', 'CI06_US', 'CI09_US'] 
 	Test :  CI21
Learning done
Saving results
SVM cross validation : 
Start: 2022-06-21 20:54:41.741292
Class 1 weight :  1.0
Kernel :  rbf
importing data
class balance
spliting variables
Learning :
 	Train :  ['CI04_US', 'CI06_US', 'CI09_US', 'CI21_US'] 
 	Test :  CI02
Learning :
 	Train :  ['CI02_US', 'CI06_US', 'CI09_US', 'CI21_US'] 
 	Test :  CI04
Learning :
 	Train :  ['CI02_US', 'CI04_US', 'CI09_US', 'CI21_US'] 
 	Test :  CI06
Learning :
 	Train :  ['CI02_US', 'CI04_US', 'CI06_US', 'CI21_US'] 
 	Test :  CI09
Learning :
 	Train :  ['CI02_US', 'CI04_US', 'CI06_US', 'CI09_US'] 
 	Test :  CI21
Learning done
Saving results
SVM cross validation : 
Start: 2022-06-22 01:21:28.188935
Class 1 weight :  1.5
Kernel :  rbf
importing data
class balance
spliting variables
Learning :
 	Train :  ['CI04_US', 'CI06_US', 'CI09_US', 'CI21_US'] 
 	Test :  CI02
Learning :
 	Train :  ['CI02_US', 'CI06_US', 'CI09_US', 'CI21_US'] 
 	Test :  CI04
Learning :
 	Train :  ['CI02_US', 'CI04_US', 'CI09_US', 'CI21_US'] 
 	Test :  CI06
Learning :
 	Train :  ['CI02_US', 'CI04_US', 'CI06_US', 'CI21_US'] 
 	Test :  CI09
Learning :
 	Train :  ['CI02_US', 'CI04_US', 'CI06_US', 'CI09_US'] 
 	Test :  CI21
Learning done
Saving results
SVM cross validation : 
Start: 2022-06-22 06:05:07.091066
Class 1 weight :  2.0
Kernel :  rbf
importing data
class balance
spliting variables
Learning :
 	Train :  ['CI04_US', 'CI06_US', 'CI09_US', 'CI21_US'] 
 	Test :  CI02
Learning :
 	Train :  ['CI02_US', 'CI06_US', 'CI09_US', 'CI21_US'] 
 	Test :  CI04
Learning :
 	Train :  ['CI02_US', 'CI04_US', 'CI09_US', 'CI21_US'] 
 	Test :  CI06
Learning :
 	Train :  ['CI02_US', 'CI04_US', 'CI06_US', 'CI21_US'] 
 	Test :  CI09
Learning :
 	Train :  ['CI02_US', 'CI04_US', 'CI06_US', 'CI09_US'] 
 	Test :  CI21
Learning done
Saving results
SVM cross validation : 
Start: 2022-06-22 10:41:00.413551
Class 1 weight :  3.0
Kernel :  rbf
importing data
class balance
spliting variables
