  0%|          | 0/5 [00:00<?, ?it/s]/home/manceaur/.conda/envs/Working_env/lib/python3.9/site-packages/sklearn/metrics/_classification.py:1327: UndefinedMetricWarning: Precision is ill-defined and being set to 0.0 due to no predicted samples. Use `zero_division` parameter to control this behavior.
  _warn_prf(average, modifier, msg_start, len(result))
 20%|██        | 1/5 [1:01:51<4:07:25, 3711.48s/it]/home/manceaur/.conda/envs/Working_env/lib/python3.9/site-packages/sklearn/metrics/_classification.py:1327: UndefinedMetricWarning: Precision is ill-defined and being set to 0.0 due to no predicted samples. Use `zero_division` parameter to control this behavior.
  _warn_prf(average, modifier, msg_start, len(result))
 40%|████      | 2/5 [1:47:47<2:37:28, 3149.34s/it]/home/manceaur/.conda/envs/Working_env/lib/python3.9/site-packages/sklearn/metrics/_classification.py:1327: UndefinedMetricWarning: Precision is ill-defined and being set to 0.0 due to no predicted samples. Use `zero_division` parameter to control this behavior.
  _warn_prf(average, modifier, msg_start, len(result))
 60%|██████    | 3/5 [2:48:06<1:52:07, 3363.80s/it]/home/manceaur/.conda/envs/Working_env/lib/python3.9/site-packages/sklearn/metrics/_classification.py:1327: UndefinedMetricWarning: Precision is ill-defined and being set to 0.0 due to no predicted samples. Use `zero_division` parameter to control this behavior.
  _warn_prf(average, modifier, msg_start, len(result))
 80%|████████  | 4/5 [3:46:32<56:59, 3419.97s/it]  /home/manceaur/.conda/envs/Working_env/lib/python3.9/site-packages/sklearn/metrics/_classification.py:1327: UndefinedMetricWarning: Precision is ill-defined and being set to 0.0 due to no predicted samples. Use `zero_division` parameter to control this behavior.
  _warn_prf(average, modifier, msg_start, len(result))
100%|██████████| 5/5 [4:42:13<00:00, 3391.51s/it]100%|██████████| 5/5 [4:42:13<00:00, 3386.69s/it]
  0%|          | 0/5 [00:00<?, ?it/s] 20%|██        | 1/5 [57:35<3:50:21, 3455.36s/it] 40%|████      | 2/5 [1:40:37<2:27:04, 2941.42s/it] 60%|██████    | 3/5 [2:39:00<1:46:35, 3197.89s/it] 80%|████████  | 4/5 [3:36:27<54:56, 3296.22s/it]  100%|██████████| 5/5 [4:31:43<00:00, 3303.49s/it]100%|██████████| 5/5 [4:31:43<00:00, 3260.69s/it]
  0%|          | 0/5 [00:00<?, ?it/s] 20%|██        | 1/5 [57:20<3:49:22, 3440.67s/it] 40%|████      | 2/5 [1:37:46<2:22:10, 2843.44s/it] 60%|██████    | 3/5 [2:39:51<1:48:12, 3246.08s/it] 80%|████████  | 4/5 [3:33:54<54:05, 3245.14s/it]  100%|██████████| 5/5 [4:26:41<00:00, 3216.72s/it]100%|██████████| 5/5 [4:26:41<00:00, 3200.27s/it]
  0%|          | 0/5 [00:00<?, ?it/s] 20%|██        | 1/5 [1:05:21<4:21:25, 3921.40s/it] 40%|████      | 2/5 [1:47:12<2:34:36, 3092.08s/it] 60%|██████    | 3/5 [2:48:41<1:52:08, 3364.24s/it] 80%|████████  | 4/5 [3:47:28<57:08, 3428.79s/it]  100%|██████████| 5/5 [4:43:34<00:00, 3405.91s/it]100%|██████████| 5/5 [4:43:34<00:00, 3402.83s/it]
  0%|          | 0/5 [00:00<?, ?it/s] 20%|██        | 1/5 [1:03:37<4:14:30, 3817.69s/it] 40%|████      | 2/5 [1:45:20<2:32:12, 3044.11s/it] 60%|██████    | 3/5 [2:45:32<1:50:06, 3303.46s/it] 80%|████████  | 4/5 [3:41:04<55:14, 3314.88s/it]  100%|██████████| 5/5 [4:35:49<00:00, 3304.00s/it]100%|██████████| 5/5 [4:35:49<00:00, 3309.90s/it]
  0%|          | 0/5 [00:00<?, ?it/s]